<svg width="109" height="107" viewBox="0 0 109 107" fill="none" xmlns="http://www.w3.org/2000/svg">
<path d="M34.463 44.5493L54.8502 23.9615L75.2482 44.5602L87.1109 32.5803L54.8502 0L22.6003 32.5694L34.463 44.5493Z" fill="#15242E"/>
<path d="M12.7852 41.2588L24.8326 53.3063L12.7846 65.3543L0.737097 53.3068L12.7852 41.2588Z" fill="#15242E"/>
<path d="M34.4762 62.3938L54.856 82.982L75.2458 62.3838L87.1109 74.3572L87.1051 74.3639L54.856 106.944L22.6169 74.3748L22.6003 74.3581L34.4762 62.3938Z" fill="#15242E"/>
<path d="M107.355 53.3125L95.3074 65.3606L83.2599 53.3131L95.308 41.265L107.355 53.3125Z" fill="#15242E"/>
<path d="M67.0794 52.3522H67.0845L54.8556 40.1045L45.8183 49.1557H45.8175L44.7797 50.1959L42.6377 52.3412L42.6208 52.3581L42.6377 52.3758L54.8556 64.6126L67.0845 52.3649L67.0904 52.3581L67.0794 52.3522Z" fill="#15242E"/>
</svg>
