<svg data-name="Icon/Arrows/Chevron/Down" xmlns="http://www.w3.org/2000/svg" width="24.091" height="24" viewBox="0 0 24.091 24">
  <path data-name="Icon Color" d="M-2.182,24,0,21.818-9.818,12,0,2.182-2.182,0l-12,12Z" transform="translate(0.091 4.909) rotate(-90)"/>
</svg>
