<?xml version="1.0" encoding="UTF-8"?>
<svg width="15px" height="18px" viewBox="0 0 15 18" version="1.1" xmlns="http://www.w3.org/2000/svg" xmlns:xlink="http://www.w3.org/1999/xlink">
    <title>Discord-Logo-White</title>
    <g id="Active---THORChain.org" stroke="none" stroke-width="1" fill="none" fill-rule="evenodd">
        <g id="Technology---FINAL" transform="translate(-634.000000, -6279.000000)" fill="#FFFFFF" fill-rule="nonzero">
            <g id="Content" transform="translate(-44.000000, 192.000000)">
                <g id="Reports-&amp;-Audits" transform="translate(208.000000, 5271.000000)">
                    <g id="But-Sir" transform="translate(0.000000, 591.000000)">
                        <g id="Call-to-Actions" transform="translate(29.500000, 213.000000)">
                            <g id="Discord" transform="translate(420.500000, 0.000000)">
                                <g id="Discord-Logo-White" transform="translate(20.000000, 12.000000)">
                                    <path d="M5.94857143,7.19142857 C5.46,7.19142857 5.07428571,7.62 5.07428571,8.14285714 C5.07428571,8.66571429 5.46857143,9.09428571 5.94857143,9.09428571 C6.43714286,9.09428571 6.82285714,8.66571429 6.82285714,8.14285714 C6.83142857,7.62 6.43714286,7.19142857 5.94857143,7.19142857 Z M9.07714286,7.19142857 C8.58857143,7.19142857 8.20285714,7.62 8.20285714,8.14285714 C8.20285714,8.66571429 8.59714286,9.09428571 9.07714286,9.09428571 C9.56571429,9.09428571 9.95142857,8.66571429 9.95142857,8.14285714 C9.95142857,7.62 9.56571429,7.19142857 9.07714286,7.19142857 Z" id="Shape"></path>
                                    <path d="M13.2428571,0 L1.75714286,0 C0.788571429,0 0,0.788571429 0,1.76571429 L0,13.3542857 C0,14.3314286 0.788571429,15.12 1.75714286,15.12 L11.4771429,15.12 L11.0228571,13.5342857 L12.12,14.5542857 L13.1571429,15.5142857 L15,17.1428571 L15,1.76571429 C15,0.788571429 14.2114286,0 13.2428571,0 Z M9.93428571,11.1942857 C9.93428571,11.1942857 9.62571429,10.8257143 9.36857143,10.5 C10.4914286,10.1828571 10.92,9.48 10.92,9.48 C10.5685714,9.71142857 10.2342857,9.87428571 9.93428571,9.98571429 C9.50571429,10.1657143 9.09428571,10.2857143 8.69142857,10.3542857 C7.86857143,10.5085714 7.11428571,10.4657143 6.47142857,10.3457143 C5.98285714,10.2514286 5.56285714,10.1142857 5.21142857,9.97714286 C5.01428571,9.9 4.8,9.80571429 4.58571429,9.68571429 C4.56,9.66857143 4.53428571,9.66 4.50857143,9.64285714 C4.49142857,9.63428571 4.48285714,9.62571429 4.47428571,9.61714286 C4.32,9.53142857 4.23428571,9.47142857 4.23428571,9.47142857 C4.23428571,9.47142857 4.64571429,10.1571429 5.73428571,10.4828571 C5.47714286,10.8085714 5.16,11.1942857 5.16,11.1942857 C3.26571429,11.1342857 2.54571429,9.89142857 2.54571429,9.89142857 C2.54571429,7.13142857 3.78,4.89428571 3.78,4.89428571 C5.01428571,3.96857143 6.18857143,3.99421448 6.18857143,3.99421448 L6.27428571,4.09714286 C4.73142857,4.54285714 4.02,5.22 4.02,5.22 C4.02,5.22 4.20857143,5.11714286 4.52571429,4.97142857 C5.44285714,4.56857143 6.17142857,4.45714286 6.47142857,4.43142857 C6.52285714,4.42285714 6.56571429,4.41428571 6.61714286,4.41428571 C7.14,4.34571429 7.73142857,4.32857143 8.34857143,4.39714286 C9.16285714,4.49142857 10.0371429,4.73142857 10.9285714,5.22 C10.9285714,5.22 10.2514286,4.57714286 8.79428571,4.13142857 L8.91428571,3.99421448 C8.91428571,3.99421448 10.0885714,3.96857143 11.3228571,4.89428571 C11.3228571,4.89428571 12.5571429,7.13142857 12.5571429,9.89142857 C12.5571429,9.89142857 11.8285714,11.1342857 9.93428571,11.1942857 L9.93428571,11.1942857 Z" id="Shape"></path>
                                </g>
                            </g>
                        </g>
                    </g>
                </g>
            </g>
        </g>
    </g>
</svg>