<?xml version="1.0" encoding="UTF-8"?>
<svg width="15px" height="13px" viewBox="0 0 15 13" version="1.1" xmlns="http://www.w3.org/2000/svg" xmlns:xlink="http://www.w3.org/1999/xlink">
    <title>Path Copy 3</title>
    <g id="Active---THORChain.org" stroke="none" stroke-width="1" fill="none" fill-rule="evenodd">
        <g id="Technology---FINAL" transform="translate(-380.000000, -6236.000000)" fill="#02121D" fill-rule="nonzero">
            <g id="Content" transform="translate(-44.000000, 147.000000)">
                <g id="Reports-&amp;-Audits" transform="translate(208.000000, 5271.000000)">
                    <g id="But-Sir" transform="translate(0.000000, 591.000000)">
                        <g id="Call-to-Actions" transform="translate(29.500000, 213.000000)">
                            <g id="Button-Shape" transform="translate(166.500000, 0.000000)">
                                <path d="M35,15.4425998 C34.4470424,15.6880991 33.8543372,15.8529342 33.2312369,15.927753 C33.8671967,15.5466446 34.3558568,14.9434181 34.5849894,14.2256254 C33.9911152,14.5775074 33.3306056,14.8335281 32.6303483,14.9714751 C32.0692073,14.3729247 31.2695814,14 30.3846154,14 C28.684826,14 27.3065233,15.3771334 27.3065233,17.0769231 C27.3065233,17.3177459 27.3345804,17.5527236 27.3871873,17.7783493 C24.8293196,17.6497543 22.5625438,16.4245965 21.0439562,14.56231 C20.7785832,15.0182369 20.6277766,15.5466446 20.6277766,16.1101238 C20.6277766,17.1774607 21.1702129,18.1197101 21.9967266,18.6726677 C21.4916997,18.6563009 21.0170681,18.5171849 20.6020575,18.2868831 C20.6020575,18.2997427 20.6020575,18.3126022 20.6020575,18.3254618 C20.6020575,19.8171616 21.6635492,21.0598548 23.0699089,21.3439325 C22.8127193,21.4140751 22.5403322,21.4514845 22.2597617,21.4514845 C22.0610241,21.4514845 21.868132,21.4327798 21.679916,21.3953704 C22.0727147,22.617021 23.2090252,23.5090015 24.5545943,23.5335513 C23.5024549,24.3588963 22.1755905,24.8498947 20.7329904,24.8498947 C20.4839842,24.8498947 20.2396541,24.8358662 20,24.8066402 C21.3607668,25.6810849 22.9787233,26.1896187 24.7170914,26.1896187 C30.3776013,26.1896187 33.473229,21.5005845 33.473229,17.4346503 C33.473229,17.3013795 33.4697218,17.1669394 33.4650457,17.0360065 C34.065934,16.6022912 34.5873276,16.0598549 35,15.4425998 Z" id="Path-Copy-3"></path>
                            </g>
                        </g>
                    </g>
                </g>
            </g>
        </g>
    </g>
</svg>