<?xml version="1.0" encoding="UTF-8"?>
<svg width="197px" height="46px" viewBox="0 0 197 46" version="1.1" xmlns="http://www.w3.org/2000/svg" xmlns:xlink="http://www.w3.org/1999/xlink">
    <title>Exported</title>
    <defs>
        <linearGradient x1="0%" y1="50%" x2="100%" y2="50%" id="linearGradient-1">
            <stop stop-color="#00CCFF" offset="0%"></stop>
            <stop stop-color="#33FF99" offset="100%"></stop>
        </linearGradient>
    </defs>
    <g id="Active---THORChain.org" stroke="none" stroke-width="1" fill="none" fill-rule="evenodd">
        <g id="RUNE---FINAL" transform="translate(-811.000000, -20.000000)" fill-rule="nonzero">
            <g id="Exported" transform="translate(811.000000, 20.000000)">
                <path d="M-7.46069873e-14,45.1505376 L29.3660229,32.7578443 L20.0759286,23.3135121 L-7.46069873e-14,45.1505376 Z M10.7858343,13.8822386 L20.0759286,23.3135121 L36.6709677,3 L10.7858343,13.8822386 Z" id="Shape" fill="url(#linearGradient-1)"></path>
                <polygon id="Path" fill="#FFFFFF" points="51.3568319 18.4737343 46.7870968 18.4737343 46.7870968 16.0666667 58.5892473 16.0666667 58.5892473 18.4780766 54.0339051 18.4780766 54.0339051 32.083871 51.3568319 32.083871"></polygon>
                <polygon id="Path" fill="#FFFFFF" points="64.0688172 16.0666667 66.763279 16.0666667 66.763279 22.9915393 73.5761051 22.9915393 73.5761051 16.0666667 76.2924731 16.0666667 76.2924731 32.083871 73.5761051 32.083871 73.5761051 25.3991841 66.763279 25.3991841 66.763279 32.083871 64.0688172 32.083871"></polygon>
                <path d="M85.4040721,31.4593513 C84.4817196,31.0410639 83.7862951,30.2482633 83.3177985,29.0809495 C82.849302,27.9136357 82.6150538,26.1957389 82.6150538,23.9272591 C82.6150538,21.6655887 82.8527181,19.9365051 83.3280469,18.7400085 C83.8033757,17.5435119 84.5027043,16.727365 85.4260329,16.2915678 C86.3483854,15.8616073 87.585509,15.6461406 89.1374037,15.6451645 C90.6892984,15.6441951 91.9371584,15.8596617 92.8809836,16.2915678 C93.8101684,16.7225012 94.5094971,17.5323251 94.9789696,18.7210396 C95.4484422,19.9097542 95.6826904,21.6427288 95.6817174,23.9199634 C95.6817174,26.1816339 95.443562,27.8995307 94.9672572,29.0736538 C94.4909524,30.2477769 93.7955279,31.0430094 92.8809836,31.4593513 C91.9664394,31.8747205 90.7185794,32.0828914 89.1374037,32.0838676 C87.5562279,32.084837 86.3117841,31.876666 85.4040721,31.4593513 Z M91.4535333,29.2151906 C91.9884002,28.9233621 92.3729577,28.3727791 92.607206,27.5634416 C92.8414543,26.754104 92.9585784,25.5381522 92.9585784,23.915586 C92.9585784,22.2375724 92.8375501,20.9827101 92.5954936,20.150999 C92.353437,19.319288 91.9693675,18.7643275 91.443285,18.4861178 C90.9162264,18.2108262 90.1475993,18.0726941 89.1374037,18.0717214 C88.1564891,18.0717214 87.4025025,18.2137445 86.8754439,18.4977909 C86.3483854,18.7818372 85.9604117,19.3363113 85.7115229,20.161213 C85.4626341,20.985142 85.3381898,22.2365997 85.3381898,23.915586 C85.3381898,25.5498253 85.4514097,26.7657772 85.6778497,27.5634416 C85.9042897,28.361106 86.2839671,28.911689 86.8168819,29.2151906 C87.3439405,29.507019 88.1198878,29.6529332 89.1447239,29.6529332 C90.1500394,29.6529332 90.9196425,29.507019 91.4535333,29.2151906 L91.4535333,29.2151906 Z" id="Shape" fill="#FFFFFF"></path>
                <path d="M102.425806,16.0666667 L108.978961,16.0666667 C110.347842,16.0666667 111.432753,16.4251132 112.233695,17.1420062 C113.034636,17.8588992 113.435106,19.1566397 113.435106,21.0352275 C113.435106,22.4535757 113.183659,23.4879086 112.680765,24.1382261 C112.17896,24.7900207 111.489852,25.2750295 110.704625,25.5290758 L113.806452,32.083871 L111.075971,32.083871 L108.279958,25.9198452 C107.391641,25.9198452 106.335855,25.9048898 105.1126,25.8749791 L105.1126,32.083871 L102.425806,32.083871 L102.425806,16.0666667 Z M108.52024,23.773508 C109.219243,23.773508 109.761456,23.5747463 110.146879,23.1772228 C110.532301,22.7796993 110.726469,22.0671482 110.729381,21.0395693 C110.729381,20.0554093 110.535214,19.3800054 110.146879,19.0133575 C109.758544,18.6467097 109.216331,18.4657979 108.52024,18.4706222 L105.1126,18.4706222 L105.1126,23.7662715 L108.52024,23.773508 Z" id="Shape" fill="#FFFFFF"></path>
                <path d="M121.748422,31.4388692 C120.949035,31.0078973 120.338551,30.1941096 119.916969,28.997506 C119.495388,27.8009025 119.285073,26.0721508 119.286022,23.811251 C119.286022,21.6641745 119.500146,19.9967123 119.928389,18.8088644 C120.356632,17.6210165 120.984722,16.7965274 121.812658,16.3353973 C122.638691,15.8752399 123.709298,15.6451613 125.02448,15.6451613 C125.888298,15.6460177 126.750733,15.7157882 127.60393,15.8538373 C128.352773,15.9671258 129.093378,16.1314164 129.820801,16.3456122 L129.820801,18.4294535 C129.392558,18.34287 128.782074,18.2630964 127.989349,18.1901328 C127.196623,18.1171692 126.38772,18.0806873 125.562639,18.0806873 C124.620504,18.0806873 123.895822,18.2300196 123.388592,18.528684 C122.881362,18.8273485 122.514025,19.3857635 122.28658,20.203929 C122.058184,21.0211217 121.943986,22.2371823 121.943986,23.8521107 C121.943986,25.4670391 122.051047,26.6855317 122.265168,27.5075887 C122.47929,28.326727 122.836159,28.888547 123.335775,29.1930486 C123.835392,29.4975501 124.570543,29.6507738 125.541227,29.6527194 C126.972243,29.6649168 128.40258,29.584496 129.823656,29.4119395 L129.823656,31.491403 C128.524652,31.8805424 126.904467,32.0780306 124.963099,32.083871 C123.619367,32.0848405 122.547808,31.869841 121.748422,31.4388692 Z" id="Path" fill="#FFFFFF"></path>
                <polygon id="Path" fill="#FFFFFF" points="136.146237 16.0666667 138.840698 16.0666667 138.840698 22.9915393 145.653524 22.9915393 145.653524 16.0666667 148.369892 16.0666667 148.369892 32.083871 145.653524 32.083871 145.653524 25.3991841 138.840698 25.3991841 138.840698 32.083871 136.146237 32.083871"></polygon>
                <path d="M159.510815,16.0666667 L162.926202,16.0666667 L168.180645,32.083871 L165.356382,32.083871 L164.108452,28.2814127 L158.270182,28.2814127 L157.044146,32.0795303 L154.270968,32.0795303 L159.510815,16.0666667 Z M163.451647,25.8766617 L161.174722,18.3686876 L158.897796,25.8766617 L163.451647,25.8766617 Z" id="Shape" fill="#FFFFFF"></path>
                <polygon id="Path" fill="#FFFFFF" points="174.08172 16.0666667 176.610753 16.0666667 176.610753 32.083871 174.08172 32.083871"></polygon>
                <polygon id="Path" fill="#FFFFFF" points="183.776344 16.0666667 185.941178 16.0666667 193.288491 27.5044264 193.288491 16.0666667 196 16.0666667 196 32.083871 193.835166 32.083871 186.487853 20.6533458 186.487853 32.083871 183.776344 32.083871"></polygon>
                <path d="M101.663,11 L101.663,6.49 C101.663,6.094 101.641,5.676 101.586,5.28 L101.707,5.28 C101.795,5.654 102.015,6.127 102.169,6.457 L104.16,10.505 C104.325,10.835 104.479,11 104.831,11 L105.876,11 C106.272,11 106.47,10.791 106.47,10.395 L106.47,3.41 L104.886,3.41 L104.886,7.777 C104.886,8.206 104.919,8.624 104.952,9.053 L104.842,9.053 C104.666,8.624 104.457,8.162 104.292,7.832 L102.367,3.905 C102.202,3.575 102.048,3.41 101.696,3.41 L100.673,3.41 C100.277,3.41 100.068,3.619 100.068,4.015 L100.068,11 L101.663,11 Z M113.136,10.923 L113.059,9.691 L110.144,9.691 C109.781,9.691 109.627,9.526 109.627,9.119 L109.627,7.656 L112.652,7.656 L112.652,6.446 L109.627,6.446 L109.627,5.291 C109.627,4.895 109.781,4.73 110.144,4.73 L113.059,4.73 L113.136,3.487 C112.102,3.377 110.793,3.377 109.616,3.377 C108.604,3.377 107.955,3.971 107.944,4.906 L107.944,9.504 C107.955,10.439 108.604,11.033 109.616,11.033 C110.793,11.033 112.102,11.033 113.136,10.923 Z M117.272,11 C117.58,11 117.833,10.813 117.877,10.527 L118.691,5.577 C118.746,5.258 118.779,4.928 118.823,4.609 L119.032,4.609 C119.065,4.928 119.109,5.247 119.164,5.566 L119.989,10.527 C120.033,10.813 120.286,11 120.583,11 L122.189,11 C122.497,11 122.739,10.813 122.794,10.538 L123.993,3.41 L122.288,3.41 L121.54,8.701 C121.496,9.031 121.463,9.427 121.441,9.779 L121.21,9.779 C121.177,9.438 121.111,9.042 121.056,8.69 L120.242,3.927 C120.198,3.619 119.967,3.41 119.659,3.41 L118.207,3.41 C117.888,3.41 117.657,3.619 117.613,3.927 L116.799,8.679 C116.744,9.02 116.678,9.416 116.634,9.779 L116.414,9.779 C116.392,9.372 116.359,9.009 116.315,8.679 L115.578,3.41 L113.862,3.41 L115.061,10.538 C115.116,10.813 115.369,11 115.666,11 L117.272,11 Z M130.362,11 C130.67,11 130.923,10.813 130.967,10.527 L131.781,5.577 C131.836,5.258 131.869,4.928 131.913,4.609 L132.122,4.609 C132.155,4.928 132.199,5.247 132.254,5.566 L133.079,10.527 C133.123,10.813 133.376,11 133.673,11 L135.279,11 C135.587,11 135.829,10.813 135.884,10.538 L137.083,3.41 L135.378,3.41 L134.63,8.701 C134.586,9.031 134.553,9.427 134.531,9.779 L134.3,9.779 C134.267,9.438 134.201,9.042 134.146,8.69 L133.332,3.927 C133.288,3.619 133.057,3.41 132.749,3.41 L131.297,3.41 C130.978,3.41 130.747,3.619 130.703,3.927 L129.889,8.679 C129.834,9.02 129.768,9.416 129.724,9.779 L129.504,9.779 C129.482,9.372 129.449,9.009 129.405,8.679 L128.668,3.41 L126.952,3.41 L128.151,10.538 C128.206,10.813 128.459,11 128.756,11 L130.362,11 Z M143.265,10.923 L143.188,9.691 L140.273,9.691 C139.91,9.691 139.756,9.526 139.756,9.119 L139.756,7.656 L142.781,7.656 L142.781,6.446 L139.756,6.446 L139.756,5.291 C139.756,4.895 139.91,4.73 140.273,4.73 L143.188,4.73 L143.265,3.487 C142.231,3.377 140.922,3.377 139.745,3.377 C138.733,3.377 138.084,3.971 138.073,4.906 L138.073,9.504 C138.084,10.439 138.733,11.033 139.745,11.033 C140.922,11.033 142.231,11.033 143.265,10.923 Z M147.676,11.088 C149.491,11.088 150.25,10.67 150.25,9.108 C150.25,7.898 149.843,7.183 148.677,7.084 L148.677,7.04 C149.623,6.952 150.008,6.391 150.008,5.302 C150.008,3.74 149.304,3.322 147.324,3.322 C146.048,3.322 145.333,3.333 144.475,3.41 L144.475,11 C145.284769,11.0651538 145.976402,11.0830533 147.049706,11.0870187 L147.676,11.088 L147.676,11.088 Z M147.335,6.512 L146.114,6.512 L146.114,4.587 L147.247,4.587 C148.127,4.587 148.402,4.763 148.402,5.533 C148.402,6.314 148.149,6.512 147.335,6.512 Z M147.39,9.823 L146.114,9.823 L146.114,7.623 L147.346,7.623 C148.292,7.634 148.567,7.865 148.567,8.789 C148.567,9.636 148.303,9.823 147.39,9.823 Z M153.88,11.143 C155.948,11.143 156.696,10.681 156.696,8.954 C156.696,7.843 156.3,7.15 155.09,6.721 L153.649,6.226 C153.077,6.039 152.857,5.896 152.857,5.368 C152.857,4.719 153.143,4.675 153.957,4.675 C154.76,4.675 155.695,4.686 156.333,4.708 L156.443,3.564 C155.596,3.322 154.694,3.267 153.946,3.267 C151.988,3.267 151.185,3.63 151.185,5.368 C151.185,6.49 151.603,7.172 152.758,7.59 L154.287,8.129 C154.793,8.294 155.002,8.426 155.002,8.965 C155.002,9.581 154.76,9.702 153.88,9.702 C153.396,9.702 152.78,9.68 151.372,9.647 L151.273,10.857 C152.439,11.11 153.396,11.143 153.88,11.143 Z M159.556,11 L159.556,3.41 L157.884,3.41 L157.884,11 L159.556,11 Z M164.473,11 L164.473,4.774 L166.739,4.774 L166.739,3.41 L160.524,3.41 L160.524,4.774 L162.79,4.774 L162.79,11 L164.473,11 Z M172.833,10.923 L172.756,9.691 L169.841,9.691 C169.478,9.691 169.324,9.526 169.324,9.119 L169.324,7.656 L172.349,7.656 L172.349,6.446 L169.324,6.446 L169.324,5.291 C169.324,4.895 169.478,4.73 169.841,4.73 L172.756,4.73 L172.833,3.487 C171.799,3.377 170.49,3.377 169.313,3.377 C168.301,3.377 167.652,3.971 167.641,4.906 L167.641,9.504 C167.652,10.439 168.301,11.033 169.313,11.033 C170.49,11.033 171.799,11.033 172.833,10.923 Z M179.928,11 C180.225,11 180.456,10.813 180.522,10.538 L182.579,3.41 L180.852,3.41 L179.488,8.888 C179.422,9.163 179.345,9.46 179.301,9.735 L179.026,9.735 C178.971,9.46 178.905,9.163 178.839,8.888 L177.464,3.41 L175.737,3.41 L177.805,10.538 C177.871,10.813 178.102,11 178.399,11 L179.928,11 Z M186.11,11.143 C188.288,11.143 189.036,10.098 189.036,7.205 C189.036,4.312 188.288,3.267 186.11,3.267 C183.943,3.267 183.195,4.312 183.195,7.205 C183.195,10.098 183.943,11.143 186.11,11.143 Z M186.099,9.812 C185.131,9.812 184.845,9.273 184.845,7.205 C184.845,5.137 185.131,4.598 186.099,4.598 C187.1,4.598 187.386,5.137 187.386,7.205 C187.386,9.273 187.1,9.812 186.099,9.812 Z M191.148,11 C191.577,11 191.72,10.857 191.72,10.428 L191.72,9.9 C191.72,9.471 191.577,9.339 191.148,9.339 L190.708,9.339 C190.279,9.339 190.136,9.471 190.136,9.9 L190.136,10.428 C190.136,10.857 190.279,11 190.708,11 L191.148,11 Z M195.977,11 L195.977,3.41 L194.305,3.41 L192.402,4.169 L192.6,5.291 L194.371,4.829 C194.316,5.115 194.305,5.379 194.305,5.654 L194.305,11 L195.977,11 Z" id="NEWWEBSITEV0.1" fill="#F3BA2F"></path>
            </g>
        </g>
    </g>
</svg>