<?xml version="1.0" encoding="UTF-8"?>
<svg width="664px" height="802px" viewBox="0 0 664 802" version="1.1" xmlns="http://www.w3.org/2000/svg" xmlns:xlink="http://www.w3.org/1999/xlink">
    <title>6</title>
    <defs>
        <rect id="path-1" x="0" y="0" width="664" height="802" rx="24"></rect>
        <linearGradient x1="50.4454736%" y1="45.1179316%" x2="67.4122086%" y2="-14.8795%" id="linearGradient-3">
            <stop stop-color="#252B78" offset="0%"></stop>
            <stop stop-color="#0A0C1C" offset="100%"></stop>
        </linearGradient>
        <linearGradient x1="46.259819%" y1="73.3354511%" x2="55.3680167%" y2="23.6213469%" id="linearGradient-4">
            <stop stop-color="#252B78" offset="50%"></stop>
            <stop stop-color="#0A0C1C" offset="100%"></stop>
        </linearGradient>
        <linearGradient x1="46.259819%" y1="73.3354511%" x2="55.3680167%" y2="23.6213469%" id="linearGradient-5">
            <stop stop-color="#252B78" offset="68%"></stop>
            <stop stop-color="#0A0C1C" offset="100%"></stop>
        </linearGradient>
        <linearGradient x1="46.7718319%" y1="72.0076239%" x2="54.8506406%" y2="22.2935197%" id="linearGradient-6">
            <stop stop-color="#252B78" offset="0%"></stop>
            <stop stop-color="#0A0C1C" offset="100%"></stop>
        </linearGradient>
        <linearGradient x1="46.6628318%" y1="72.0076239%" x2="55.2231797%" y2="22.2935197%" id="linearGradient-7">
            <stop stop-color="#252B78" offset="0%"></stop>
            <stop stop-color="#0A0C1C" offset="100%"></stop>
        </linearGradient>
        <linearGradient x1="46.6628318%" y1="72.0076239%" x2="55.2226327%" y2="22.2935197%" id="linearGradient-8">
            <stop stop-color="#252B78" offset="0%"></stop>
            <stop stop-color="#0A0C1C" offset="100%"></stop>
        </linearGradient>
        <linearGradient x1="53.3380573%" y1="27.9923761%" x2="44.7761305%" y2="77.7064803%" id="linearGradient-9">
            <stop stop-color="#252B78" offset="0%"></stop>
            <stop stop-color="#0A0C1C" offset="100%"></stop>
        </linearGradient>
        <linearGradient x1="46.259819%" y1="73.3354511%" x2="55.3680167%" y2="23.6213469%" id="linearGradient-10">
            <stop stop-color="#252B78" offset="0%"></stop>
            <stop stop-color="#0A0C1C" offset="100%"></stop>
        </linearGradient>
        <linearGradient x1="48.5901208%" y1="60.6162643%" x2="57.6977365%" y2="10.9053367%" id="linearGradient-11">
            <stop stop-color="#252B78" offset="0%"></stop>
            <stop stop-color="#0A0C1C" offset="100%"></stop>
        </linearGradient>
        <linearGradient x1="49.1443213%" y1="57.592122%" x2="58.2535157%" y2="7.87801779%" id="linearGradient-12">
            <stop stop-color="#252B78" offset="0%"></stop>
            <stop stop-color="#0A0C1C" offset="100%"></stop>
        </linearGradient>
        <linearGradient x1="44.799422%" y1="69.5636693%" x2="56.1147983%" y2="23.7716061%" id="linearGradient-13">
            <stop stop-color="#252B78" offset="0%"></stop>
            <stop stop-color="#0A0C1C" offset="100%"></stop>
        </linearGradient>
        <linearGradient x1="50%" y1="100%" x2="50%" y2="3.28475943e-15%" id="linearGradient-14">
            <stop stop-color="#15C7B6" offset="0%"></stop>
            <stop stop-color="#2D3493" offset="63%"></stop>
            <stop stop-color="#0A0C1C" offset="100%"></stop>
        </linearGradient>
        <linearGradient x1="-0.285240901%" y1="49.8902064%" x2="100.286182%" y2="49.8902064%" id="linearGradient-15">
            <stop stop-color="#15C7B6" offset="0%"></stop>
            <stop stop-color="#2E3192" offset="100%"></stop>
        </linearGradient>
        <linearGradient x1="-0.285240901%" y1="49.8902064%" x2="100.286182%" y2="49.8902064%" id="linearGradient-16">
            <stop stop-color="#15C7B6" offset="50%"></stop>
            <stop stop-color="#2E3192" offset="100%"></stop>
        </linearGradient>
        <linearGradient x1="50.0019684%" y1="100%" x2="50.0019684%" y2="0%" id="linearGradient-17">
            <stop stop-color="#15C7B6" offset="0%"></stop>
            <stop stop-color="#2D3493" offset="63%"></stop>
            <stop stop-color="#0A0C1C" offset="100%"></stop>
        </linearGradient>
        <linearGradient x1="50.0019684%" y1="100.858148%" x2="50.0019684%" y2="-0.918218485%" id="linearGradient-18">
            <stop stop-color="#15C7B6" offset="0%"></stop>
            <stop stop-color="#2E3192" offset="100%"></stop>
        </linearGradient>
        <linearGradient x1="49.976716%" y1="100%" x2="49.976716%" y2="-6.95962325e-15%" id="linearGradient-19">
            <stop stop-color="#15C7B6" offset="0%"></stop>
            <stop stop-color="#2E3192" offset="100%"></stop>
        </linearGradient>
        <linearGradient x1="50.0367886%" y1="100%" x2="50.0367886%" y2="2.8958897e-14%" id="linearGradient-20">
            <stop stop-color="#15C7B6" offset="0%"></stop>
            <stop stop-color="#2E3192" offset="100%"></stop>
        </linearGradient>
        <linearGradient x1="50.0186289%" y1="100%" x2="50.0186289%" y2="0.00979383967%" id="linearGradient-21">
            <stop stop-color="#15C7B6" offset="0%"></stop>
            <stop stop-color="#2E3192" offset="100%"></stop>
        </linearGradient>
        <linearGradient x1="51.0034261%" y1="99.9825784%" x2="51.0034261%" y2="-3.60627178%" id="linearGradient-22">
            <stop stop-color="#15C7B6" offset="0%"></stop>
            <stop stop-color="#2E3192" offset="100%"></stop>
        </linearGradient>
        <linearGradient x1="50%" y1="99.9825784%" x2="50%" y2="-3.60627178%" id="linearGradient-23">
            <stop stop-color="#15C7B6" offset="0%"></stop>
            <stop stop-color="#2E3192" offset="100%"></stop>
        </linearGradient>
        <linearGradient x1="49.9986003%" y1="100%" x2="49.9986003%" y2="-0.0346320346%" id="linearGradient-24">
            <stop stop-color="#227AA4" offset="5%"></stop>
            <stop stop-color="#2E3192" offset="100%"></stop>
        </linearGradient>
        <linearGradient x1="50.0043669%" y1="99.9768133%" x2="50.0043669%" y2="8.8506835e-14%" id="linearGradient-25">
            <stop stop-color="#227AA4" offset="5%"></stop>
            <stop stop-color="#2E3192" offset="100%"></stop>
        </linearGradient>
        <linearGradient x1="100%" y1="49.9264551%" x2="4.04833055e-15%" y2="49.9264551%" id="linearGradient-26">
            <stop stop-color="#15C7B6" offset="0%"></stop>
            <stop stop-color="#2E3192" offset="100%"></stop>
        </linearGradient>
        <linearGradient x1="100.011846%" y1="50.0155812%" x2="0.0118462359%" y2="50.0155812%" id="linearGradient-27">
            <stop stop-color="#15C7B6" offset="0%"></stop>
            <stop stop-color="#2E3192" offset="100%"></stop>
        </linearGradient>
        <linearGradient x1="49.9958526%" y1="100.060753%" x2="49.9958526%" y2="0.0303766707%" id="linearGradient-28">
            <stop stop-color="#227AA4" offset="5%"></stop>
            <stop stop-color="#2E3192" offset="100%"></stop>
        </linearGradient>
        <linearGradient x1="49.9985045%" y1="99.9768205%" x2="49.9985045%" y2="0.0311308798%" id="linearGradient-29">
            <stop stop-color="#227AA4" offset="5%"></stop>
            <stop stop-color="#2E3192" offset="100%"></stop>
        </linearGradient>
        <linearGradient x1="-0.00878040214%" y1="49.9264551%" x2="100%" y2="49.9264551%" id="linearGradient-30">
            <stop stop-color="#15C7B6" offset="0%"></stop>
            <stop stop-color="#2E3192" offset="90%"></stop>
        </linearGradient>
        <linearGradient x1="1.72944563e-14%" y1="50.0155812%" x2="100%" y2="50.0155812%" id="linearGradient-31">
            <stop stop-color="#15C7B6" offset="0%"></stop>
            <stop stop-color="#2E3192" offset="90%"></stop>
        </linearGradient>
        <linearGradient x1="49.9994844%" y1="99.9813346%" x2="49.9994844%" y2="0%" id="linearGradient-32">
            <stop stop-color="#227AA4" offset="5%"></stop>
            <stop stop-color="#2E3192" offset="61%"></stop>
            <stop stop-color="#22246A" offset="100%"></stop>
        </linearGradient>
        <linearGradient x1="50%" y1="100%" x2="50%" y2="-0.025987526%" id="linearGradient-33">
            <stop stop-color="#227AA4" offset="5%"></stop>
            <stop stop-color="#26609E" offset="100%"></stop>
        </linearGradient>
        <linearGradient x1="100%" y1="50%" x2="0%" y2="50%" id="linearGradient-34">
            <stop stop-color="#15C7B6" offset="0%"></stop>
            <stop stop-color="#2E3192" offset="100%"></stop>
        </linearGradient>
        <linearGradient x1="-0.0108474576%" y1="50%" x2="99.9891525%" y2="50%" id="linearGradient-35">
            <stop stop-color="#15C7B6" offset="0%"></stop>
            <stop stop-color="#2E3192" offset="90%"></stop>
        </linearGradient>
        <linearGradient x1="50%" y1="100%" x2="50%" y2="0%" id="linearGradient-36">
            <stop stop-color="#15C7B6" offset="0%"></stop>
            <stop stop-color="#2E3192" offset="100%"></stop>
        </linearGradient>
        <linearGradient x1="50.0110059%" y1="100%" x2="50.0110059%" y2="0%" id="linearGradient-37">
            <stop stop-color="#15C7B6" offset="0%"></stop>
            <stop stop-color="#2E3192" offset="100%"></stop>
        </linearGradient>
        <linearGradient x1="50.0004776%" y1="100%" x2="50.0004776%" y2="0%" id="linearGradient-38">
            <stop stop-color="#227AA4" offset="5%"></stop>
            <stop stop-color="#2E3192" offset="100%"></stop>
        </linearGradient>
        <linearGradient x1="50.0004776%" y1="100%" x2="50.0004776%" y2="0%" id="linearGradient-39">
            <stop stop-color="#227AA4" offset="5%"></stop>
            <stop stop-color="#26609E" offset="100%"></stop>
        </linearGradient>
        <radialGradient cx="50%" cy="50%" fx="50%" fy="50%" r="82.6238947%" gradientTransform="translate(0.500000,0.500000),scale(0.473426,1.000000),translate(-0.500000,-0.500000)" id="radialGradient-40">
            <stop stop-color="#2D3493" stop-opacity="0" offset="0%"></stop>
            <stop stop-color="#22286F" stop-opacity="0.15" offset="24%"></stop>
            <stop stop-color="#0A0C1C" stop-opacity="0.5" offset="100%"></stop>
        </radialGradient>
    </defs>
    <g id="⚡-Active---THORChain.org" stroke="none" stroke-width="1" fill="none" fill-rule="evenodd">
        <g id="RUNE---FINAL" transform="translate(-170.000000, -4812.000000)">
            <g id="Content" transform="translate(-598.000000, 209.000000)">
                <g id="Illustrations" transform="translate(768.000000, 158.000000)">
                    <g id="6" transform="translate(0.000000, 4445.000000)">
                        <mask id="mask-2" fill="white">
                            <use xlink:href="#path-1"></use>
                        </mask>
                        <use id="Background" fill="#02121D" xlink:href="#path-1"></use>
                        <g id="Thorchain_Fair" mask="url(#mask-2)">
                            <g transform="translate(-1018.000000, -25.379009)" id="Layer_12">
                                <g transform="translate(492.000000, 0.379009)" id="Group">
                                    <rect id="Rectangle" fill="#0A0C1C" fill-rule="nonzero" x="47.8499815" y="23.1251467" width="1650.40688" height="770.677632"></rect>
                                    <polygon id="Path" fill="url(#linearGradient-3)" fill-rule="nonzero" points="885.288886 16.2678983 837.872445 191.665712 856.386213 376.04058 943.97737 269.263427 936.9765 198.36237 931.404707 0.883252131"></polygon>
                                    <polygon id="Path" fill="url(#linearGradient-4)" fill-rule="nonzero" points="1074.77802 16.2678983 1062.20536 70.7725844 1045.89141 376.04058 1123.80017 506.424654 1138.52448 218.452341 1120.9099 0.883252131"></polygon>
                                    <polygon id="Path" fill="url(#linearGradient-5)" fill-rule="nonzero" points="670.220882 16.2678983 657.648219 70.7725844 641.334266 376.04058 719.243028 506.424654 733.967334 218.452341 716.35276 0.883252131"></polygon>
                                    <polygon id="Path" fill="url(#linearGradient-6)" fill-rule="nonzero" points="944.892622 11.514396 933.861435 216.05953 938.11655 376.04058 1016.02531 506.424654 997.543658 158.487551 1013.13504 0.883252131"></polygon>
                                    <polygon id="Path" fill="url(#linearGradient-7)" fill-rule="nonzero" points="545.666417 11.514396 529.737832 170.740667 538.890346 376.04058 616.799107 506.424654 572.610131 169.520173 613.90884 0.883252131"></polygon>
                                    <polygon id="Path" fill="url(#linearGradient-8)" fill-rule="nonzero" points="735.492753 11.514396 719.580225 170.740667 728.732739 376.04058 806.6415 506.424654 762.436467 169.520173 803.751233 0.883252131"></polygon>
                                    <polygon id="Path" fill="url(#linearGradient-9)" fill-rule="nonzero" points="1189.52164 495.79351 1205.45022 336.567239 1196.28165 131.267326 1118.37289 0.883252131 1162.57792 337.787733 1121.27921 506.424654"></polygon>
                                    <polygon id="Path" fill="url(#linearGradient-7)" fill-rule="nonzero" points="1152.36565 11.514396 1136.45312 170.740667 1145.60563 376.04058 1223.51439 506.424654 1179.30936 169.520173 1220.62413 0.883252131"></polygon>
                                    <polygon id="Path" fill="url(#linearGradient-10)" fill-rule="nonzero" points="1176.41909 16.2678983 1163.84643 70.7725844 1147.53248 376.04058 1225.44124 506.424654 1240.16554 218.452341 1222.55097 0.883252131"></polygon>
                                    <polygon id="Path" fill="url(#linearGradient-11)" fill-rule="nonzero" points="581.875044 23.1893832 569.302381 77.6940693 552.988427 382.962065 630.897189 513.346139 645.621496 225.373826 627.990865 7.80473701"></polygon>
                                    <polygon id="Path" fill="url(#linearGradient-10)" fill-rule="nonzero" points="791.852966 16.2678983 779.264246 70.7725844 762.96635 376.04058 840.875111 506.424654 855.599418 218.452341 837.968787 0.883252131"></polygon>
                                    <polygon id="Path" fill="url(#linearGradient-12)" fill-rule="nonzero" points="467.275944 16.2678983 454.687224 70.7725844 438.37327 376.04058 516.298089 506.424654 531.022396 218.452341 513.391765 0.883252131"></polygon>
                                    <polygon id="Path" fill="url(#linearGradient-10)" fill-rule="nonzero" points="1017.4865 16.2678983 1004.91384 70.7725844 988.599887 376.04058 1066.50865 506.424654 1081.23295 218.452341 1063.61838 0.883252131"></polygon>
                                    <polygon id="Path" fill="url(#linearGradient-13)" fill-rule="nonzero" points="820.402384 10.2939021 837.551304 142.572953 850.38088 376.04058 928.289641 506.424654 943.013948 218.452341 892.659068 16.4124305"></polygon>
                                    <g transform="translate(0.000000, 9.635478)" fill-rule="nonzero">
                                        <path d="M1441.58506,73.8719964 C1382.17951,90.4570058 1326.73069,118.859584 1278.55793,157.379471 C1189.82672,228.232351 1021.35625,339.441824 856.514669,321.391362 L856.514669,320.652642 L853.303261,321.022002 L850.172138,320.652642 L850.172138,321.391362 C685.378729,339.441824 517.036713,228.232351 428.177049,157.379471 C380.006451,118.856237 324.556918,90.453294 265.149914,73.8719964 L0.529882346,0.128473037 L6.50310151,694.894599 L1700.24793,694.894599 L1706.2051,0.128473037 L1441.58506,73.8719964 Z" id="Path" stroke="url(#linearGradient-15)" stroke-width="6" fill="url(#linearGradient-14)" opacity="0.56"></path>
                                        <path d="M1441.58506,162.759279 C1382.17951,179.344288 1326.73069,207.746867 1278.55793,246.266753 C1189.82672,317.103574 1021.35625,428.313047 856.514669,410.262585 L856.514669,409.507806 L853.303261,409.877166 L850.172138,409.507806 L850.172138,410.246526 C685.378729,428.313047 517.036713,317.103574 428.177049,246.186458 C380.006451,207.663224 324.556918,179.260281 265.149914,162.678983 L0.529882346,88.9996966 L6.50310151,783.765823 L1700.24793,783.765823 L1706.2051,88.9996966 L1441.58506,162.759279 Z" id="Path" stroke="url(#linearGradient-16)" stroke-width="6" fill="url(#linearGradient-14)"></path>
                                        <polygon id="Path" stroke="url(#linearGradient-18)" stroke-width="6" fill="url(#linearGradient-17)" points="974.405463 717.168612 709.094978 717.168612 641.703578 346.218776 713.75152 208.768686 850.653849 155.757499 983.060207 206.552526 1049.56847 346.379368"></polygon>
                                        <path d="M755.018114,522.387429 C753.41241,517.874813 727.464232,440.485867 712.932611,377.437724 C702.46342,380.64955 690.452753,380.794082 677.783748,377.791025 L674.443884,377.004128 L675.455477,373.792302 C675.583934,373.406883 683.965709,347.102028 704.358151,330.978662 C703.654629,325.272686 703.306056,319.528523 703.314443,313.779334 C703.844325,280.488759 704.920147,259.61189 716.449102,250.474245 C722.036953,246.009807 729.664047,244.516308 740.534664,245.833157 C742.446497,236.419792 747.420724,227.904343 754.680917,221.615989 C767.41415,210.374599 777.5622,205.990456 787.581793,207.275187 C793.587126,208.046025 799.447946,211.000905 805.244538,216.236181 C815.386567,203.73187 830.168304,195.879318 846.206049,194.47606 L846.848331,200.899712 C832.28891,202.168945 818.887293,209.355329 809.772623,220.780915 C812.728249,224.092962 815.448532,227.607789 817.913543,231.299644 C823.694078,239.859161 824.866242,246.780645 821.430035,251.903508 C817.319433,257.989918 806.593329,260.575438 789.412296,259.676127 C787.646021,264.493865 786.008203,269.231309 784.386442,273.936634 C776.165237,297.81656 768.329401,320.50811 750.666656,324.635306 C749.960147,341.706161 743.489159,356.657211 732.120774,366.806581 C728.25855,370.259013 723.881164,373.087346 719.146685,375.189446 C733.854935,439.120841 760.894991,519.255898 761.200075,520.363978 L755.018114,522.387429 Z M682.761431,372.282744 C692.278458,374.282963 702.142942,373.891201 711.47142,371.142546 C708.870179,359.387263 706.654308,348.242227 705.289459,338.301625 C701.745411,341.505527 698.519027,345.044256 695.655235,348.868533 C690.352021,356.070366 686.027096,363.943725 682.793545,372.282744 L682.761431,372.282744 Z M711.134222,333.740833 C712.49907,344.082912 714.747056,356.030905 717.557038,368.781853 C721.241292,367.017609 724.657758,364.741471 727.705088,362.02096 C737.531997,353.236616 743.232246,340.260839 744.067213,325.30979 C743.53733,325.30979 743.007448,325.30979 742.461508,325.30979 C731.37348,324.39045 720.310654,327.353788 711.166336,333.692655 L711.134222,333.740833 Z M733.614079,251.839271 C727.865658,251.839271 723.562372,253.043706 720.47942,255.516812 C711.246621,262.871893 710.251085,283.395461 709.769373,313.891748 C709.744705,318.18279 709.959131,322.471873 710.411655,326.739052 C720.154544,320.69061 731.575981,317.916471 743.007448,318.821901 L744.195669,318.821901 C744.195669,316.750273 743.97087,314.630468 743.713958,312.478545 C743.28577,308.924124 742.857582,305.466058 742.429394,302.104347 C739.988724,282.624623 737.917366,266.035542 739.571241,252.112277 C737.578741,251.868162 735.573301,251.744817 733.565908,251.742917 L733.614079,251.839271 Z M745.994057,253.220356 C744.388353,266.404902 746.427598,282.464032 748.80404,301.397745 C749.221523,304.780869 749.64971,308.254994 750.088603,311.820121 C750.329458,313.891748 750.506086,315.947317 750.586371,317.970767 C763.977943,313.506329 770.689786,293.994487 778.284766,271.913183 C779.697786,267.785987 781.158977,263.546377 782.71651,259.258589 C771.003532,258.03355 759.370018,256.140847 747.872731,253.589716 L745.994057,253.220356 Z M791.772681,253.429125 C810.125878,254.119668 814.878762,250.137004 816.066983,248.370499 C818.36314,244.982023 815.424702,239.200736 812.550491,234.961126 C810.476305,231.849183 808.213373,228.867302 805.77442,226.03225 C800.051891,234.558773 795.337109,243.720113 791.72451,253.33277 L791.772681,253.429125 Z M747.085936,246.877 L749.205466,247.310597 C761.02846,249.947616 773.003061,251.851573 785.060838,253.011588 C789.114673,241.825839 794.563581,231.196387 801.278449,221.375102 C796.381051,216.878546 791.547882,214.341204 786.73077,213.730957 C778.70225,212.703172 770.111733,216.653718 758.887861,226.57826 C752.870821,231.864692 748.715742,238.94839 747.037765,246.780645 L747.085936,246.877 Z" id="Shape" fill="url(#linearGradient-19)"></path>
                                        <path d="M905.312016,516.879147 L902.100608,511.274511 C903.320943,510.600028 1023.70058,441.883012 1023.70058,363.530518 C1023.70058,341.481333 1017.42227,324.55501 1005.05835,313.201206 C979.222575,289.513989 931.725848,293.657245 903.337,296.114292 C873.021307,298.764048 855.487019,291.376849 845.756452,283.989649 C826.182919,298.18592 795.979625,296.997544 785.911861,296.114292 C757.53907,293.657245 710.042343,289.513989 684.206565,313.201206 C671.826586,324.55501 665.548283,341.481333 665.548283,363.530518 C665.548283,441.883012 785.976089,510.55185 787.148253,511.274511 L783.936845,516.879147 C761.819137,503.82072 741.000164,488.67768 721.763983,471.656638 C680.738244,435.057882 659.061239,397.688287 659.061239,363.578695 C659.061239,339.650592 666.046051,321.134416 679.806935,308.51194 C707.714072,282.929746 756.977073,287.201475 786.409629,289.770936 C814.541565,292.211923 831.208773,285.916744 840.618199,279.557329 C839.191804,278.09623 837.891878,276.516775 836.732395,274.835945 C826.022349,259.194353 827.660167,236.807926 841.629792,208.335089 L846.286334,201.654491 L851.344302,208.624153 C864.944616,236.310093 866.421863,258.214746 855.727874,273.82422 C854.255695,275.973397 852.577853,277.974162 850.718077,279.798216 C862.471831,288.004431 880.921371,291.665913 902.710775,289.770936 C932.159388,287.201475 981.390275,282.929746 1009.32953,308.51194 C1023.09041,321.134416 1030.05917,339.650592 1030.05917,363.578695 C1030.05917,397.688287 1008.38216,435.057882 967.436707,471.656638 C948.21724,488.677008 927.414312,503.820111 905.312016,516.879147 L905.312016,516.879147 Z M846.559304,213.184946 C834.580751,238.445957 833.087447,257.9578 842.159675,271.206582 C843.242301,272.773144 844.462089,274.240304 845.804623,275.590724 C847.609834,273.980726 849.22594,272.170451 850.621735,270.194857 C859.629735,256.946075 858.280944,237.771474 846.559304,213.184946 Z" id="Shape" fill="url(#linearGradient-20)"></path>
                                        <path d="M800.555882,553.461845 C800.555882,553.461845 820.627183,529.726451 845.949136,557.091208 C871.27109,584.455965 906.741093,589.514591 906.741093,589.514591 L903.529685,455.918691 L766.852153,471.560283 L798.356067,558.697121 L800.555882,553.461845 Z" id="Path" fill="#FFFFFF"></path>
                                        <path d="M936.446618,522.564079 L930.361,520.508511 C930.730312,519.400431 957.657969,439.265374 972.414389,375.333978 C967.678856,373.226963 963.30141,370.393173 959.440301,366.935054 C948.087973,356.801743 941.616985,341.850693 940.894418,324.779838 C923.231674,320.68476 915.363724,297.961092 907.174633,274.081166 C905.568929,269.375841 903.963225,264.59022 902.164836,259.820659 C884.967745,260.71997 874.241642,258.118391 870.050755,252.031981 C866.614548,246.925178 867.802769,240.003693 873.583303,231.444177 C876.04307,227.752769 878.757982,224.237949 881.708166,220.925447 C872.593496,209.499861 859.191879,202.313477 844.632459,201.044244 L845.274741,194.620592 C861.358876,195.985585 876.19153,203.849422 886.348651,216.396772 C892.1613,211.161496 898.02212,208.206616 904.011396,207.435778 C914.047046,206.151047 924.179039,210.647604 936.912272,221.776581 C944.108205,228.044445 949.035468,236.511634 950.930069,245.865275 C961.864914,244.548426 969.492008,246.041926 975.01563,250.490304 C986.480357,259.627949 987.636464,280.504818 988.150289,313.811453 C988.166272,319.560864 987.81767,325.305502 987.106582,331.010781 C1007.48297,347.06991 1015.86474,373.439001 1016.00926,373.82442 L1017.02085,377.116542 L1013.68098,377.903439 C1002.1451,380.896908 990.021545,380.774992 978.548179,377.550138 C964.0005,440.726754 937.972037,518.035405 936.446618,522.564079 Z M979.945142,371.319196 C989.276222,374.051992 999.136766,374.443596 1008.65513,372.459394 C1005.43368,364.117934 1001.11368,356.243706 995.809498,349.045183 C992.950242,345.217156 989.723473,341.678005 986.175273,338.478276 C984.698026,348.483114 982.546382,359.563913 979.945142,371.319196 L979.945142,371.319196 Z M947.365406,325.422203 C948.184315,340.373253 953.884564,353.365089 963.711473,362.149433 C966.761548,364.866392 970.177489,367.142181 973.859523,368.910327 C976.669505,356.159378 978.933548,344.211385 980.282339,333.853246 C971.14939,327.468636 960.07813,324.464811 948.97111,325.357967 C948.409114,325.390085 947.879231,325.422203 947.365406,325.422203 Z M952.648172,318.805842 C962.698468,318.755583 972.559572,321.538424 981.101249,326.835407 C981.548708,322.567951 981.757775,318.278852 981.727473,313.988103 C981.245762,283.475757 980.250225,262.952189 971.017427,255.597108 C966.954996,252.385282 960.789092,251.277202 951.925605,252.288927 C953.53131,266.212192 951.508122,282.801273 949.067452,302.280998 C948.649969,305.653415 948.216429,309.122187 947.798946,312.671254 C947.542033,314.807119 947.365406,316.926924 947.301178,319.014611 L948.489399,319.014611 C949.902418,318.854019 951.299381,318.805842 952.648172,318.805842 L952.648172,318.805842 Z M908.780337,259.387062 C910.386041,263.67485 911.799061,267.930519 913.21208,272.057716 C920.80706,294.139019 927.518903,313.650861 940.910475,318.115299 C941.006818,316.07579 941.167388,314.020221 941.424301,311.948594 C941.841784,308.399526 942.275324,304.914695 942.708864,301.542278 C945.069249,282.592505 947.076379,266.533375 945.502789,253.364889 L943.624115,253.750308 C932.140998,256.268212 920.52358,258.128742 908.828508,259.322826 L908.780337,259.387062 Z M885.722426,226.112546 C883.283474,228.947597 881.020542,231.929479 878.946355,235.041422 C876.088202,239.281032 873.149763,245.046259 875.429863,248.450795 C876.618084,250.217299 881.370968,254.183904 899.724166,253.509421 C896.133572,243.865612 891.434823,234.671681 885.722426,226.112546 L885.722426,226.112546 Z M890.218398,221.455398 C896.932119,231.279864 902.385991,241.908474 906.452066,253.091883 C918.504356,251.930444 930.473527,250.026497 942.291381,247.390892 L944.41091,246.957296 C942.778134,239.073365 938.637837,231.92972 932.608985,226.594319 C921.369057,216.717955 912.794597,212.767409 904.766077,213.747016 C899.948964,214.421499 895.131852,216.942783 890.218398,221.455398 L890.218398,221.455398 Z" id="Shape" fill="url(#linearGradient-21)"></path>
                                        <path d="M818.90908,378.320977 C818.90908,378.320977 784.161643,369.488455 762.532809,429.5496 C740.903976,489.610745 772.167034,523.672159 772.167034,523.672159 L843.347896,463.86796 L952.327031,497.592132 L892.000729,379.412997 L818.90908,378.320977 Z" id="Path" fill="#0B504F"></path>
                                        <path d="M426.153862,646.283614 C468.528393,647.375635 516.555002,648.596129 567.150737,644.677701 C696.056661,634.592568 747.326792,602.763373 749.446321,601.414406 L749.446321,785.773214 L219.853002,751.792096 L257.394364,661.507669 L258.165102,660.399589 C304.987433,642.365186 361.026505,644.629524 426.153862,646.283614 Z" id="Path" fill="url(#linearGradient-22)"></path>
                                        <path d="M1341.42124,646.283614 C1292.41516,647.375635 1236.87385,648.596129 1178.36199,644.677701 C1029.27237,634.592568 969.989776,602.763373 967.533049,601.414406 L967.533049,785.773214 L1580.01281,751.792096 L1536.6588,661.507669 L1535.77567,660.399589 C1481.55104,642.365186 1416.74482,644.629524 1341.42124,646.283614 Z" id="Path" fill="url(#linearGradient-23)"></path>
                                        <path d="M742.092197,595.552823 C710.443769,604.305049 655.801659,628.329507 575.243486,633.80567 C513.118795,638.029221 456.774639,639.410307 401.650818,638.173754 C339.526127,636.792668 282.507575,635.556115 232.730749,642.911197 L242.686114,609.187024 C294.598527,591.875283 359.677713,593.320604 435.017349,595.006813 C483.638068,596.082775 538.729775,597.303269 596.792035,593.4009 C744.886122,583.331826 803.927861,551.51869 806.336417,550.169723 L806.336417,595.135286 L791.88508,577.71113 C791.740567,577.807485 776.325807,586.158233 742.092197,595.552823 Z" id="Path" fill="url(#linearGradient-24)"></path>
                                        <path d="M575.949996,584.55232 C516.426545,589.016758 461.800493,587.667791 408.956772,586.38306 C370.869471,585.451631 335.206783,584.584438 301.920538,586.093996 L309.01775,565.554369 C353.592095,549.157998 409.807795,550.539083 474.886981,552.128937 C517.116998,553.17278 564.96698,554.264801 615.466373,550.523024 C761.585444,539.811584 851.328245,485.804731 853.463831,484.487883 L798.356067,558.697121 L783.198221,538.510795 C782.620167,538.864096 723.337573,573.47152 575.949996,584.55232 Z" id="Path" fill="url(#linearGradient-25)"></path>
                                        <path d="M254.777066,583.540594 C247.326599,585.307099 242.686114,609.235202 242.686114,609.235202 C294.598527,591.92346 359.677713,593.368782 435.017349,595.05499 C483.638068,596.130952 538.729775,597.351446 596.792035,593.449077 C744.886122,583.380003 803.927861,551.566867 806.336417,550.2179 L791.88508,532.809804 C791.339141,533.114927 734.914699,562.968849 594.640391,572.491913 C537.991151,576.346104 485.998453,575.189847 435.675687,574.097826 C367.192408,572.588268 306.882163,571.239301 254.728895,583.653008" id="Path" fill="url(#linearGradient-26)"></path>
                                        <path d="M327.563632,534.769018 C318.555632,536.856705 308.776894,565.795256 308.776894,565.795256 C353.110384,549.254353 411.798868,550.201841 476.540856,551.807754 C518.546075,552.851598 566.155201,554.023914 616.381624,550.201841 C744.757665,540.45395 800.732509,510.054017 850.958933,486.061677 L844.648516,462.727762 C829.474612,468.316339 734.352703,516.590083 614.149696,525.727728 C565.40052,529.421327 520.601376,528.313248 477.27948,527.237286 C421.079837,525.840142 371.303011,524.603589 327.563632,534.752959" id="Path" fill="url(#linearGradient-27)"></path>
                                        <path d="M962.555366,595.552823 C993.368828,604.305049 1048.87802,630.882909 1127.28455,636.407249 C1187.75536,640.6308 1240.294,639.410307 1293.94057,638.173754 C1354.41139,636.792668 1432.35227,648.56401 1480.81241,655.838796 L1448.69833,609.122788 C1398.16683,591.811046 1334.8218,593.256368 1261.47324,594.942576 C1214.15314,596.018538 1160.52262,597.239032 1104.00184,593.336664 C959.841727,583.267589 902.405692,551.454453 900.077421,550.105486 L900.077421,595.07105 L914.143388,577.646894 C914.223674,577.807485 929.237007,586.158233 962.555366,595.552823 Z" id="Path" fill="url(#linearGradient-28)"></path>
                                        <path d="M1124.26582,584.55232 C1182.21568,589.016758 1235.3966,587.667791 1286.81125,586.38306 C1323.88696,585.451631 1358.60228,584.584438 1390.98933,586.093996 L1384.11691,565.522251 C1340.7629,549.12588 1286.02445,550.506965 1222.66337,552.096819 C1181.55735,553.140662 1134.99193,554.232683 1085.82527,550.490906 C943.640172,539.779466 856.209585,485.772613 854.154284,484.455764 L907.816914,558.665003 L922.573335,538.478677 C923.103217,538.864096 980.812222,573.47152 1124.26582,584.55232 Z" id="Path" fill="url(#linearGradient-29)"></path>
                                        <path d="M1436.91247,583.540594 C1444.17025,585.307099 1448.68228,609.235202 1448.68228,609.235202 C1398.15077,591.92346 1334.80574,593.368782 1261.45718,595.05499 C1214.13708,596.130952 1160.50657,597.351446 1103.98578,593.449077 C959.825669,583.380003 902.389635,551.566867 900.061364,550.2179 L914.111274,532.809804 C914.657214,533.114927 969.572293,562.968849 1106.12137,572.491913 C1161.26125,576.346104 1211.87304,575.189847 1260.8149,574.097826 C1327.48373,572.588268 1386.18827,571.239301 1436.96064,583.653008" id="Path" fill="url(#linearGradient-30)"></path>
                                        <path d="M1366.00457,534.769018 C1374.75566,536.856705 1384.27749,565.795256 1384.27749,565.795256 C1341.11616,549.254353 1284.00127,550.201841 1220.97738,551.807754 C1180.09615,552.851598 1133.75554,554.023914 1084.86185,550.201841 C959.889898,540.45395 905.408358,510.054017 856.514669,486.061677 L862.664516,462.727762 C877.420936,468.316339 970.02189,516.590083 1087.02955,525.727728 C1134.49416,529.421327 1178.08902,528.313248 1220.30298,527.237286 C1275.00932,525.840142 1323.5337,524.603589 1366.03669,534.752959" id="Path" fill="url(#linearGradient-31)"></path>
                                        <path d="M1648.03044,801.816285 L1536.6588,661.507669 L1535.77567,660.399589 C1481.61527,642.397305 1416.80905,644.629524 1341.48547,646.283614 C1292.47938,647.375635 1236.93808,648.596129 1178.42622,644.677701 C1086.66023,638.462818 1028.93517,624.02566 997.527601,613.522989 L877.517278,479.525612 L789.894007,481.597239 L706.236825,613.458753 C673.962173,623.961424 614.711692,638.398581 520.392635,644.613465 C460.275074,648.56401 403.176237,647.343517 352.869528,646.219377 C275.490649,644.613465 208.918158,642.333068 153.280511,660.335352 L152.36526,661.443432 L108.079941,751.149731 L108.079941,820.203988 L1648.03044,822.725272 L1665.33993,823.67276 L1648.03044,801.816285 Z" id="Path" fill="url(#linearGradient-32)"></path>
                                        <path d="M1341.42124,646.283614 C1292.41516,647.375635 1236.87385,648.596129 1178.36199,644.677701 C1086.59601,638.462818 1028.87094,624.02566 997.463373,613.522989 L984.521398,599.069773 L715.389338,599.069773 L706.236825,613.522989 C673.962173,624.02566 614.711692,638.462818 520.392635,644.677701 C460.275074,648.628247 403.176237,647.407753 352.869528,646.283614 C275.490649,644.677701 208.918158,642.397305 153.280511,660.399589 L152.879085,660.865304 L1536.09681,660.865304 L1535.71144,660.399589 C1481.55104,642.365186 1416.74482,644.629524 1341.42124,646.283614 Z" id="Path" fill="url(#linearGradient-33)"></path>
                                        <path d="M151.096754,662.96905 C205.128696,639.619075 274.639625,656.705989 352.869528,658.954267 C403.208351,660.415648 460.275074,662.053679 520.392635,656.770226 C673.560747,643.280557 759.176888,589.691241 761.697843,587.892619 L759.321401,563.338209 C759.176888,563.450623 708.581152,587.812323 676.210158,599.423074 C646.263777,610.150572 594.576163,624.362902 518.35339,631.075618 C459.600678,636.246658 405.681135,634.688922 353.527867,633.195423 C281.271183,631.107736 232.77892,621.311667 178.152867,639.057006 L151.096754,662.96905 Z" id="Path" fill="url(#linearGradient-34)"></path>
                                        <path d="M1539.87021,665.490333 C1487.2834,642.140359 1417.62796,656.705989 1341.48547,658.954267 C1292.47938,660.415648 1236.93808,662.053679 1178.42622,656.770226 C1029.3366,643.280557 950.223559,596.821495 947.766832,595.006813 L980.892507,577.550539 C962.812279,578.385614 995.231444,587.812323 1026.75142,599.423074 C1055.89494,610.150572 1106.21771,624.362902 1180.40124,631.075618 C1237.59642,636.246658 1290.08688,634.688922 1340.84319,633.195423 C1411.25331,631.107736 1464.88383,621.215313 1518.04869,638.960651 L1539.87021,665.490333 Z" id="Path" fill="url(#linearGradient-35)"></path>
                                        <polygon id="Path" fill="url(#linearGradient-36)" points="795.786941 608.448305 725.20019 608.448305 732.5222 441.497593 795.786941 441.497593"></polygon>
                                        <polygon id="Path" fill="url(#linearGradient-37)" points="976.846133 608.448305 903.898996 608.448305 903.898996 441.497593 967.163737 441.497593"></polygon>
                                        <path d="M896.44853,414.116777 L893.237121,399.422673 L892.707239,397.4474 C890.519647,389.19214 883.844314,382.889259 875.478034,381.179502 C873.562838,380.793055 871.70235,380.172812 869.938355,379.332702 C859.98299,374.514963 847.811753,376.297526 847.811753,376.297526 L819.455019,391.987296 L799.110748,409.652338 L817.849315,447.230702 L813.20883,453.301053 C813.20883,453.301053 842.593215,474.354572 853.945543,471.817229 C865.29787,469.279887 888.885663,455.838395 888.885663,455.838395 L887.472644,444.597005 L896.44853,414.116777 Z" id="Path" fill="#1FE1E0"></path>
                                        <path d="M873.792045,381.195561 L889.271032,379.284524 C889.271032,379.284524 897.604636,381.307975 901.0569,385.001574 C904.509164,388.695174 908.555538,398.105824 908.555538,398.105824 L916.584059,403.212627 L922.412764,408.688791 L940.075509,412.992637 L952.054062,425.599054 L956.228892,432.392066 L955.393926,440.421631 L952.407317,441.626066 L950.624985,440.790991 L949.67762,449.125679 L947.172721,450.554942 L943.367203,450.426469 L942.178982,453.766768 L939.079973,453.766768 L935.51531,450.908243 L932.769556,451.743317 L931.163852,450.137404 L929.140665,434.303102 L927.53496,432.69719 L923.36013,431.990588 C923.991024,433.465096 924.036954,435.12452 923.488586,436.631676 C922.558806,438.447628 921.30753,440.079938 919.795467,441.449415 L917.06577,440.61434 L916.455602,428.473638 L916.696458,427.044376 L922.300365,423.83255 L916.648287,425.566936 L906.532351,424.137673 L894.746483,411.868498 L873.792045,381.195561 Z" id="Path" fill="#1FE1E0"></path>
                                        <path d="M824.6575,381.195561 L809.274855,379.284524 C809.274855,379.284524 800.941251,381.307975 797.488987,385.001574 C794.036723,388.695174 789.990349,398.105824 789.990349,398.105824 L781.961829,403.212627 L776.133123,408.688791 L758.470378,412.992637 L746.459712,425.566936 L742.284881,432.359948 L743.119847,440.389513 L746.0904,441.593947 L747.872731,440.758873 L748.836154,449.093561 L751.324995,450.522823 L755.146571,450.39435 L756.334792,453.734649 L759.498029,453.734649 L763.062692,450.876124 L765.808446,451.711199 L767.41415,450.105286 L769.437337,434.270984 L771.043041,432.665071 L775.201815,431.95847 C774.587157,433.437389 774.547071,435.09261 775.089415,436.599558 C776.019196,438.415509 777.270472,440.04782 778.782535,441.417297 L781.512232,440.582222 L782.106342,428.44152 L781.865487,427.012258 L776.277636,423.800432 L781.865487,425.599054 L791.997479,424.169792 L803.783347,411.900617 L824.6575,381.195561 Z" id="Path" fill="#1FE1E0"></path>
                                        <path d="M798.227611,381.516743 C798.227611,381.516743 831.786826,413.87589 850.075796,405.268196 C868.364765,396.660503 892.0489,379.445116 892.0489,379.445116 C892.0489,379.445116 884.518148,374.418608 869.809899,375.141269 C855.10165,375.86393 812.919803,368.589144 798.227611,381.516743 Z" id="Path" fill="#0B504F"></path>
                                        <line x1="833.697614" y1="358.985784" x2="833.151675" y2="373.503238" id="Path" fill="#0A0C1C"></line>
                                        <path d="M833.151675,364.285297 C833.151675,364.285297 832.027682,354.938884 833.280131,349.575134 C834.53258,344.211385 847.972323,339.939657 847.972323,339.939657 C847.972323,339.939657 862.279147,340.06813 863.162284,347.166265 C864.045421,354.2644 861.749264,370.195057 861.749264,370.195057 L861.749264,380.890437 L844.327375,385.900886 L837.101707,379.926889 L833.360416,372.957227 L833.151675,364.285297 Z" id="Path" fill="#1FE1E0"></path>
                                        <path d="M833.360416,365.072195 L833.6655,374.996737 C833.6655,374.996737 834.853721,393.657445 839.927746,398.73213 L842.095447,402.971741 L842.593215,405.862384 C842.808736,408.142579 843.550796,410.341561 844.760915,412.286036 C846.944673,416.2687 847.185528,407.677066 847.185528,407.677066 L847.057072,405.268196 L849.12843,397.752523 L851.665443,402.473908 L853.608345,406.231744 C853.739485,408.490298 854.283724,410.705641 855.214049,412.76781 C856.328652,411.783054 856.990365,410.383988 857.044551,408.897559 C857.097512,407.467168 856.929616,406.037161 856.546783,404.657949 L861.781379,390.317146 L861.861664,370.243234 C861.861664,370.243234 859.934819,380.071422 857.783175,380.826201 L855.615475,377.51802 L847.924152,376.297526 L841.645849,378.031912 L838.932209,380.601373 L835.720801,374.964618 L834.468352,367.143822 L833.360416,365.072195 Z" id="Path" fill="#FFFFFF"></path>
                                        <polygon id="Path" fill="#1FE1E0" points="845.210512 380.440782 848.421921 378.144326 851.649386 380.440782"></polygon>
                                        <path d="M830.855518,351.004397 C829.122709,355.588125 827.155811,360.079884 824.962584,364.461948 C823.423963,366.405317 821.637092,368.138429 819.647704,369.616928 L813.626313,374.916441 L819.840388,375.462451 L824.7699,385.499407 L830.004495,394.010746 L829.458555,395.905723 C829.304216,396.4299 829.304216,396.98746 829.458555,397.511636 L829.956324,398.892722 L829.442498,401.51036 C829.279044,402.395909 829.463068,403.310397 829.956324,404.063761 L830.727062,405.220019 L830.727062,405.220019 C830.058961,406.247171 829.967909,407.54635 830.486206,408.656672 C830.702393,409.148113 831.001084,409.598923 831.369343,409.98958 C832.279947,408.479489 832.690195,406.720251 832.541507,404.963073 L833.424644,402.634499 C833.689059,401.974825 833.689059,401.238604 833.424644,400.57893 L832.814477,398.973017 L833.553101,396.821094 C833.744905,396.280685 833.826794,395.70739 833.793956,395.134885 L833.713671,393.159612 L841.96699,387.876159 L833.50493,368.910327 L833.585215,352.128536 L830.855518,351.004397 Z" id="Path" fill="#FFFFFF"></path>
                                        <path d="M865.474498,349.462721 C865.474498,349.462721 867.497685,368.28402 870.098926,370.965895 C872.700166,373.64777 873.808102,372.90905 873.808102,372.90905 L877.276423,375.093091 C877.276423,375.093091 870.612751,380.119599 870.098926,381.340093 C869.77498,382.548389 869.682364,383.807044 869.825956,385.049752 C869.825956,385.049752 869.665386,387.731626 868.541393,388.261578 C869.254917,389.393809 869.612859,390.713894 869.569043,392.051532 C869.474648,393.248015 868.982921,394.37857 868.172081,395.263358 C868.887813,396.662188 868.998102,398.293515 868.477165,399.775974 C869.058801,401.120567 868.868415,402.674562 867.979396,403.838934 C868.712223,404.474274 868.985497,405.49124 868.669849,406.408394 C868.351288,407.53716 867.881365,408.617585 867.272886,409.62022 C867.272886,409.62022 865.121243,406.167507 865.667182,404.417062 C865.024933,403.14274 864.778864,401.705291 864.960673,400.289866 C864.960673,400.289866 863.611881,397.334986 864.559247,396.034197 C864.559247,396.034197 862.600288,391.923059 862.953542,390.172614 L860.25596,390.509856 L861.203325,375.173387 L861.765321,370.195057 C861.765321,370.195057 862.552116,362.647266 863.371026,351.245284 L865.474498,349.462721 Z" id="Path" fill="#FFFFFF"></path>
                                        <path d="M864.960673,347.888926 C864.816159,347.455329 864.607418,346.973555 864.382619,346.427545 C862.343375,341.786457 857.333578,333.483886 847.651183,334.078074 L846.928616,334.078074 L846.928616,334.078074 C838.900095,334.945267 834.564694,341.593747 832.477279,346.266954 C832.252481,346.764787 832.059796,347.214442 831.899226,347.648039 C831.474624,348.693767 831.120576,349.76678 830.839461,350.859865 C830.839461,350.859865 844.343432,358.134651 848.10078,357.893764 C848.10078,357.893764 860.320188,355.661545 865.490555,349.318188 C865.474498,349.462721 865.329985,348.852474 864.960673,347.888926 Z" id="Path" fill="#55EEED"></path>
                                        <path d="M748.948553,470.628854 C748.948553,470.628854 757.121587,457.78155 779.56933,456.609234 C791.544467,456.093552 803.482176,454.919462 815.32836,453.092284 L850.38088,464.558503 C850.38088,464.558503 845.708281,484.423646 842.898299,489.096853 C840.088316,493.77006 786.794998,493.015281 786.794998,493.015281 L797.778014,510.327022 C797.778014,510.327022 798.950178,509.379534 798.243668,520.845752 C797.537158,532.311971 803.157123,559.387663 807.123212,562.438898 C811.089301,565.490133 824.448759,573.680289 819.246277,584.134782 C815.906413,590.799321 805.742306,603.18091 798.869893,611.226534 C794.814149,615.967241 788.511178,618.142234 782.395369,616.911466 L768.088546,614.020823 C768.088546,614.020823 767.494435,604.481699 771.075155,600.209971 C772.520289,598.475585 780.500638,592.726417 783.551476,587.362667 C787.00374,581.212021 784.193757,575.800094 784.129529,573.616052 C783.808388,560.592098 752.834357,508.656873 750.554257,499.551346 C748.274157,490.44582 742.445451,480.810342 748.948553,470.628854 Z" id="Path" fill="#1FE1E0"></path>
                                        <path d="M878.86607,455.533272 L911.140722,459.226872 C911.140722,459.226872 936.526903,472.202648 936.526903,476.4262 C936.526903,480.649751 932.287845,502.875586 932.287845,502.875586 C932.287845,502.875586 934.937256,515.305352 933.090697,523.238563 C931.244137,531.171773 916.680401,583.283648 916.680401,583.283648 L924.885549,601.52682 L946.562554,615.54644 C946.562554,615.54644 944.95685,629.56606 930.698198,629.839065 C930.698198,629.839065 912.457399,627.189309 910.080957,621.889796 C908.985986,619.35367 907.747592,616.881921 906.371781,614.486537 L892.883866,605.236479 C892.883866,605.236479 892.626954,589.627005 895.003396,586.463356 C897.379838,583.299707 901.618897,561.057813 898.969485,545.191393 C896.320073,529.324973 887.6011,514.24545 900.799988,501.044845 C900.799988,501.044845 874.883924,501.044845 856.113243,488.342074 L836.844794,490.99183 L823.886762,469.825897 L878.86607,455.533272 Z" id="Path" fill="#1FE1E0"></path>
                                        <path d="M916.680401,583.283648 C916.680401,583.283648 931.22808,531.171773 933.090697,523.238563 C934.551887,516.943384 933.187039,507.821798 932.560814,504.320908 L930.473399,504.320908 C918.559075,512.784069 902.229064,506.697659 897.700979,504.722386 C889.158633,517.039739 896.560929,530.786353 898.969485,545.191393 C901.618897,561.057813 897.363781,583.283648 895.003396,586.463356 C892.643011,589.643064 892.883866,605.236479 892.883866,605.236479 L906.371781,614.486537 C907.747592,616.881921 908.985986,619.35367 910.080957,621.889796 C912.457399,627.189309 930.698198,629.839065 930.698198,629.839065 C944.988964,629.56606 946.562554,615.54644 946.562554,615.54644 L924.885549,601.52682 L916.680401,583.283648 Z" id="Path" fill="#017E7D"></path>
                                        <path d="M748.916439,494.059124 C749.526606,495.905924 750.120717,497.720606 750.522143,499.535287 C752.802243,508.640814 783.776274,560.55998 784.097415,573.599993 C784.097415,575.784035 786.971626,581.195961 783.519362,587.346608 C780.468524,592.774594 772.488175,598.587999 771.043041,600.193912 C767.462321,604.46564 768.056431,614.004763 768.056431,614.004763 L782.363255,616.895407 C788.479064,618.126174 794.782035,615.951182 798.837779,611.210475 C805.710192,603.18091 819.406848,593.995088 822.746712,587.330549 C827.949194,576.908174 811.073244,565.474074 807.091098,562.422839 C803.108952,559.371604 797.456873,532.279853 798.211554,520.829693 C798.966235,509.379534 797.7459,510.310963 797.7459,510.310963 L789.155383,496.773117 C783.283089,498.606084 777.223874,499.774991 771.091212,500.257948 C764.716567,500.579131 754.55246,496.548289 748.916439,494.059124 Z" id="Path" fill="#017E7D"></path>
                                        <path d="M929.702661,468.348457 C928.257099,466.899256 926.545054,465.743203 924.66075,464.943922 L923.151388,464.205202 C922.428822,463.835842 921.882882,463.370127 921.208486,462.95259 C920.694934,462.700232 920.156893,462.501131 919.602782,462.358402 C918.670151,461.925344 917.764014,461.437361 916.889142,460.897021 C915.534086,460.028145 914.135279,459.229488 912.698255,458.504211 C912.089078,458.207524 911.461576,457.950054 910.819581,457.733373 C910.097014,457.524604 909.342333,457.396131 908.635823,457.155244 C906.982881,456.507553 905.24837,456.091433 903.481513,455.918691 C901.559061,455.757574 899.645879,455.500306 897.74915,455.147853 C895.64499,454.887801 893.569882,454.430788 891.551132,453.782827 C890.60291,453.445318 889.63826,453.155885 888.660865,452.915634 C887.890127,452.738983 887.055161,452.369623 886.348651,452.209032 C885.62654,452.109622 884.890998,452.19812 884.213064,452.465978 C882.60736,452.963811 881.001656,453.670413 879.283553,454.071891 C873.695703,455.517213 868.043624,456.769825 862.375489,458.022437 C857.17748,458.964176 851.906131,459.442475 846.623532,459.4517 C843.412124,459.564113 840.200716,459.740764 836.989308,459.772882 C835.009056,459.872463 833.023812,459.770228 831.06426,459.467759 C829.844569,459.148587 828.648191,458.746165 827.483539,458.263324 C825.267668,457.476427 823.324766,456.095341 821.157065,455.147853 C820.64324,454.923025 820.017015,454.553665 819.471076,454.377015 C818.925137,454.200364 817.865372,454.377015 817.239147,453.798886 L814.910876,451.743317 C814.335088,451.670936 813.752504,451.670936 813.176716,451.743317 L773.756681,456.561056 L773.178628,456.561056 L772.038578,456.689529 C770.432874,457.010712 769.019854,457.380072 767.638948,457.765491 C761.751052,459.209175 756.339503,462.158797 751.935163,466.325007 C747.9122,470.14979 745.700442,475.501889 745.849544,481.051229 C747.535533,476.4262 751.614022,472.090235 755.933366,468.541167 C756.12605,469.279887 756.061822,470.355849 756.527476,470.982155 C756.99313,471.608461 758.13318,471.142746 758.598834,470.69309 C759.48446,470.085675 760.438362,469.584408 761.440931,469.199591 C762.210515,468.763073 763.115863,468.631265 763.977943,468.830231 C765.246449,469.312005 765.856617,470.548558 766.820039,471.399692 C767.741574,472.302224 768.449342,473.399682 768.891398,474.611518 C769.340995,475.575066 769.485508,476.715264 769.983276,477.662753 C770.481045,478.610241 771.58898,478.738714 772.777201,478.722655 C775.057301,478.722655 777.337401,478.722655 779.601444,478.722655 C780.76501,478.783621 781.883602,479.19196 782.812852,479.894972 C783.425101,480.163741 783.997749,480.514938 784.514898,480.938815 C784.93095,481.553769 785.270644,482.217067 785.526492,482.914088 C786.16192,484.418655 786.640803,485.984643 786.955568,487.587295 C787.180367,488.486606 787.565736,489.353799 787.87082,490.220992 C788.03139,490.702766 788.14379,491.987496 788.753957,492.051733 C789.258683,491.586551 789.686791,491.044571 790.022463,490.44582 C790.110503,490.074731 790.223152,489.709917 790.359661,489.353799 C790.985886,488.181483 791.965365,488.277837 793.153586,488.309956 C793.887017,488.356051 794.603074,488.552855 795.257059,488.888084 C796.712322,489.533942 798.010555,490.4872 799.062577,491.682373 C799.372276,492.056319 799.71633,492.400418 800.090228,492.710157 C800.475597,493.063458 800.684338,493.513114 801.05365,493.882474 C801.724024,494.661174 802.35119,495.47606 802.932324,496.323461 C803.326082,496.922975 803.613942,497.585683 803.783347,498.282675 C804.20083,499.535287 804.570142,500.803958 805.003682,502.056571 C805.233202,502.836866 805.506607,503.603572 805.822591,504.353026 C806.079504,504.931155 806.272189,505.958939 806.818128,506.360417 C807.095561,505.385121 807.198838,504.368533 807.123212,503.35736 C807.092571,502.211604 807.266572,501.06957 807.637037,499.984943 C808.157981,498.634181 808.901547,497.380267 809.836852,496.275284 C810.398848,495.520505 811.089301,494.13942 812.020609,493.786119 C813.457523,493.585841 814.920263,493.86826 816.179383,494.589075 C817.304926,494.994665 818.294832,495.706599 819.037536,496.644644 C819.337425,497.202567 819.675424,497.739144 820.04913,498.250557 C820.588225,498.8898 821.012025,499.617962 821.301579,500.40248 C821.686948,501.462383 822.040203,502.650758 822.329229,503.758838 C822.467588,505.199319 823.02593,506.567434 823.934933,507.693325 C824.934455,508.684393 825.847662,509.758893 826.66463,510.905151 C827.391278,511.953772 828.353712,512.817324 829.474612,513.426434 C831.578085,514.341805 833.906356,514.325746 834.757379,516.879147 C834.973338,517.754646 835.118322,518.646143 835.190919,519.544963 C835.383882,520.263695 835.496965,521.001525 835.528117,521.745063 C835.479239,522.511369 835.577343,523.279953 835.817144,524.009401 C836.217788,525.330754 836.75597,526.606411 837.422848,527.815415 C837.95273,528.682608 838.691354,529.421327 839.221236,530.256402 C839.407788,530.704544 839.713149,531.093235 840.104373,531.380541 C840.615725,531.585434 841.180841,531.613694 841.710078,531.460837 C842.513553,531.232998 843.377459,531.399843 844.038348,531.910493 C845.457989,532.614563 846.736847,533.57247 847.811753,534.736899 C848.114233,535.186469 848.494932,535.578096 848.935746,535.893157 C849.734396,536.072066 850.571382,535.927739 851.264017,535.491678 C852.773379,534.656604 854.154284,533.580642 855.647589,532.713449 C858.007974,531.348423 859.533393,528.907435 861.347838,526.932162 C862.142134,525.876615 863.276548,525.127804 864.559247,524.812357 C865.142613,524.699659 865.742155,524.699659 866.325521,524.812357 C866.646662,524.908712 866.98386,525.245954 867.369229,525.165658 C867.754598,525.085362 868.188138,524.298465 868.396879,523.961223 C869.769215,521.529193 871.331614,519.209454 873.069478,517.023679 C873.727817,516.204664 874.482498,515.417766 875.189008,514.646928 C875.526205,514.277568 875.895517,513.972445 876.248772,513.635203 C876.619787,513.194584 877.016555,512.776315 877.436993,512.382591 C878.463576,511.455879 879.714569,510.813693 881.065884,510.519732 C882.158875,510.337844 883.265671,510.251868 884.373635,510.262786 C885.353114,510.262786 886.444993,511.017565 887.199674,510.054017 C887.718104,509.336269 888.179804,508.579197 888.58058,507.78968 C888.938863,506.832823 889.357178,505.899538 889.833029,504.995391 C890.507424,504.063962 892.434269,504.080021 893.477977,504.047903 C895.30848,504.047903 897.540408,504.369085 899.065827,503.148591 C900.69267,501.549169 901.810029,499.504136 902.277235,497.27095 C902.608014,495.501924 902.779973,493.70686 902.791061,491.907201 C902.847621,489.598189 903.678979,487.375292 905.151446,485.595963 C905.761613,484.969657 906.532351,484.503942 907.158576,483.893695 C907.72134,483.352573 908.373167,482.912533 909.085421,482.592905 C909.518961,482.368078 910.016729,482.191427 910.434212,481.934481 C911.188893,481.516944 911.285235,480.537337 911.317349,479.73438 C911.28433,479.103969 911.365937,478.472797 911.558205,477.871521 C911.750889,477.357629 912.055973,476.891914 912.280772,476.378022 C912.377114,476.185313 912.377114,475.944426 912.489513,475.751716 C913.037865,475.059179 913.706981,474.471585 914.464529,474.01733 C916.45264,472.580388 918.516247,471.250931 920.64649,470.034666 C922.147493,469.141469 923.770085,468.470711 925.463602,468.043334 C926.717032,467.782684 928.022038,467.964274 929.156722,468.557226 C929.816368,468.811332 930.425378,469.181137 930.95511,469.649247 C931.244137,469.841956 931.533164,469.986489 931.82219,470.163139 C931.062501,469.623291 930.35311,469.01593 929.702661,468.348457 L929.702661,468.348457 Z" id="Path" fill="#157AC1"></path>
                                        <path d="M931.93459,470.387967 L932.576871,470.853682 C932.38456,470.670421 932.16854,470.513786 931.93459,470.387967 L931.93459,470.387967 Z" id="Path" fill="#157AC1"></path>
                                        <path d="M817.672687,446.5241 C817.672687,446.5241 842.51293,460.977317 888.323667,449.976813 L891.229991,453.011989 L896.304016,455.356621 C896.304016,455.356621 864.398676,472.138412 853.431717,472.138412 C842.464758,472.138412 810.318563,452.289328 810.318563,452.289328 L813.931397,451.341839 L817.672687,446.5241 Z" id="Path" fill="#006362"></path>
                                        <path d="M850.653849,476.137135 C848.45054,476.086183 846.384516,475.05598 845.017828,473.326788 C842.939922,470.684809 841.728613,467.465449 841.549507,464.108847 C841.510215,463.61179 841.510215,463.112406 841.549507,462.615348 C841.549507,462.454757 841.549507,462.278106 841.549507,462.117515 C841.389091,458.765061 842.239397,455.441723 843.990177,452.578392 C845.49475,449.983112 848.297652,448.418212 851.296131,448.499373 L851.296131,448.499373 C852.524839,448.495947 853.712509,448.941381 854.635995,449.751985 C857.060838,451.894379 858.681086,454.801007 859.228309,457.990319 C860.050629,461.593465 859.872957,465.352842 858.714484,468.86235 C858.196465,470.482575 857.379521,471.991395 856.305928,473.310728 C854.938356,475.073284 852.851718,476.128529 850.621735,476.185313 L850.653849,476.137135 Z M851.264017,452.176914 C849.559591,452.095556 847.95791,452.993113 847.137357,454.489428 C845.756044,456.737077 845.10011,459.355547 845.258684,461.989042 L845.258684,461.989042 C845.258684,462.197811 845.258684,462.406579 845.258684,462.615348 C845.233891,462.952134 845.233891,463.290287 845.258684,463.627073 C845.350092,466.256067 846.265701,468.789767 847.875981,470.869741 C848.52908,471.761391 849.549963,472.310261 850.653849,472.36324 L850.653849,472.36324 C851.789235,472.279677 852.826899,471.690019 853.479888,470.757327 C854.253401,469.804411 854.841597,468.715018 855.214049,467.545501 C856.164459,464.668446 856.308843,461.586003 855.631532,458.632684 C855.245027,456.247612 854.055321,454.066202 852.259553,452.449919 C852.008002,452.201721 851.665331,452.068119 851.312188,452.080559 L851.264017,452.176914 Z" id="Shape" fill="#006362"></path>
                                        <path d="M843.396067,462.037219 C843.245227,459.043587 843.994664,456.073416 845.54771,453.509822 C846.717236,451.437124 848.950773,450.196108 851.328245,450.297996 C852.119902,450.291249 852.886153,450.5772 853.479888,451.100952 C855.580314,452.992485 856.978283,455.539723 857.445978,458.32756 C858.201264,461.610688 858.040185,465.038242 856.980323,468.236043 C856.535931,469.628834 855.83323,470.925458 854.908965,472.058116 C853.92866,473.42364 852.35073,474.233334 850.669906,474.233334 C848.989083,474.233334 847.411153,473.42364 846.430848,472.058116 C844.587263,469.687064 843.521668,466.803974 843.38001,463.803724 C843.355466,463.214997 843.360825,462.625403 843.396067,462.037219 Z" id="Path" fill="#2AF4F3"></path>
                                        <path d="M892.851752,511.997172 C892.450113,513.472065 892.873437,515.048999 893.959688,516.124368 C894.795807,517.385238 895.812951,518.516146 896.978412,519.480726 C898.279032,520.492451 899.515424,521.584472 900.799988,522.612256 C901.361984,523.061912 901.972152,523.46339 902.502034,523.961223 C903.031916,524.459056 903.545742,525.005067 904.107738,525.470782 C904.669734,525.936496 905.376244,526.337975 905.954298,526.851867 C906.520039,527.375298 907.138919,527.838173 907.800857,528.232952 C909.021192,528.939554 910.369984,529.37315 911.606376,530.031574 C912.296829,530.400934 912.971225,530.85059 913.693791,531.187832 C914.416358,531.525073 915.299495,531.749901 916.038119,532.038966 C916.776743,532.32803 917.354797,532.633153 918.045249,532.857981 C918.735702,533.082809 919.538554,533.291578 920.293235,533.484287 C922.107681,533.917884 923.890012,534.528131 925.720515,534.833254 C927.445596,534.993805 929.181858,534.993805 930.906939,534.833254 C931.580911,534.833254 932.127274,534.28682 932.127274,533.61276 C932.127274,532.9387 931.580911,532.392267 930.906939,532.392266 C929.509977,532.392266 928.113014,532.601035 926.716051,532.488621 C925.227391,532.268303 923.760685,531.919042 922.332479,531.444778 C920.895608,531.139298 919.479708,530.742366 918.093421,530.256402 C917.483253,530.015515 916.905199,529.726451 916.262918,529.517682 C915.529383,529.299685 914.819371,529.009188 914.143388,528.650489 C912.923053,527.959947 911.718775,527.365759 910.450269,526.803689 C909.841055,526.545926 909.250825,526.245406 908.683995,525.904378 C908.105941,525.535018 907.640287,525.037185 907.078291,524.635707 C906.516294,524.234229 905.970355,523.880928 905.472586,523.46339 C904.974818,523.045853 904.509164,522.515902 904.011396,522.066246 C903.513627,521.61659 902.855289,521.182994 902.277235,520.717279 L900.543075,519.239839 C899.207804,518.246953 897.956485,517.145864 896.801784,515.947718 C896.352187,515.417766 895.950761,514.823579 895.549335,514.24545 C895.147909,513.667321 894.858883,513.281902 895.131852,512.639537 C895.243064,512.018013 894.861934,511.414259 894.253056,511.247422 C893.644178,511.080584 893.008585,511.405747 892.787524,511.997172 L892.851752,511.997172 Z" id="Path" fill="#2E9898"></path>
                                        <path d="M896.207674,535.957393 C897.814807,536.015691 899.424037,535.967408 901.024786,535.812861 C902.517114,535.581735 903.977441,535.177533 905.376244,534.608426 C906.821378,534.062416 908.170169,533.339755 909.583189,532.713449 C910.996208,532.087143 912.296829,531.573251 913.613506,530.914827 C916.337351,529.523179 918.914128,527.860699 921.304829,525.952555 C922.476993,525.037185 923.729442,524.218169 924.837378,523.238563 C925.945313,522.258956 927.053249,521.295408 928.209356,520.347919 C930.90814,518.167368 933.324622,515.658864 935.40291,512.880424 C935.724348,512.301316 935.52528,511.571494 934.954336,511.235857 C934.383391,510.900219 933.648984,511.081287 933.299438,511.643871 C931.573296,513.958861 929.579032,516.061197 927.358333,517.906932 C926.266454,518.822302 925.126404,519.705554 924.050583,520.653043 C923.538891,521.130006 923.002944,521.58026 922.444879,522.00201 C921.834711,522.483783 921.192429,522.91738 920.566205,523.383095 C918.287434,525.160095 915.88333,526.770196 913.372651,528.200834 C912.112298,528.88738 910.815062,529.503915 909.486847,530.047634 C908.202283,530.593644 906.965891,531.236009 905.697385,531.798079 C904.24009,532.470377 902.709822,532.971551 901.137185,533.291578 C899.494161,533.524341 897.831685,533.588912 896.17556,533.484287 C895.501588,533.484287 894.955225,534.030721 894.955225,534.704781 C894.955225,535.378841 895.501588,535.925275 896.17556,535.925275 L896.207674,535.957393 Z" id="Path" fill="#2E9898"></path>
                                        <path d="M896.801784,546.299473 C897.046304,546.686725 897.266186,547.089 897.460123,547.503907 C897.709963,547.953632 897.9945,548.383179 898.311146,548.788638 C898.891547,549.596363 899.513246,550.373588 900.173763,551.117212 C900.799988,551.823813 901.345927,552.578592 901.988209,553.269135 C902.727864,553.961026 903.528632,554.584524 904.380708,555.131994 C905.207219,555.817664 906.087881,556.435282 907.014062,556.978794 C907.8972,557.444509 908.828508,557.765691 909.727702,558.183229 C910.626897,558.600766 911.445806,559.114658 912.328943,559.532196 C913.33785,559.965778 914.372872,560.33586 915.427952,560.640276 C916.584059,561.025695 917.740166,561.395055 918.864158,561.860769 C919.988151,562.326484 921.144258,562.808258 922.332479,563.177618 C922.754121,563.292366 923.204944,563.173424 923.515126,562.865597 C923.825309,562.557771 923.947727,562.107825 923.836267,561.685251 C923.724807,561.262677 923.396403,560.931673 922.974761,560.816926 C920.999745,560.222738 919.137128,559.323427 917.178169,558.665003 C916.19869,558.327761 915.203153,558.038697 914.239731,557.701455 C913.355036,557.350031 912.501074,556.92568 911.686661,556.432784 C910.851695,555.999187 909.984615,555.661945 909.117535,555.292585 C908.23524,554.888354 907.400519,554.387456 906.628693,553.799086 C905.857955,553.220958 905.022989,552.691006 904.268308,552.0647 C903.605772,551.450112 902.998614,550.778389 902.453863,550.057309 C901.843695,549.30253 901.1693,548.595928 900.591246,547.809031 C900.248398,547.382643 899.937135,546.931788 899.659938,546.460064 C899.43391,545.981 899.181977,545.514595 898.905257,545.06292 C898.552653,544.538659 897.86807,544.353798 897.299553,544.629323 C896.756205,544.968007 896.566943,545.66907 896.866013,546.235236 L896.801784,546.299473 Z" id="Path" fill="#2E9898"></path>
                                        <path d="M899.48331,565.281364 C900.62336,565.281364 901.76341,565.377719 902.90346,565.281364 C903.449399,565.281364 903.995339,565.104714 904.509164,565.072595 C905.022989,565.040477 905.6171,565.072595 906.114868,565.072595 C907.167595,564.954096 908.193228,564.661019 909.149649,564.205402 C910.113071,563.755747 910.948037,563.065204 911.879346,562.599489 C912.886234,562.12794 913.834662,561.540486 914.705385,560.849044 C915.524294,560.142443 916.311089,559.532196 917.22634,558.841653 C918.928387,557.444509 920.437748,555.854655 922.155852,554.441451 C923.163163,553.714634 924.133171,552.937455 925.062176,552.112878 C925.897142,551.245685 926.571538,550.250019 927.358333,549.350707 C927.805211,548.865118 927.805211,548.11797 927.358333,547.632381 C926.87718,547.158975 926.105325,547.158975 925.624173,547.632381 C924.949777,548.403219 924.355666,549.238293 923.681271,550.009132 C922.989884,550.733346 922.225828,551.384493 921.401171,551.952286 C920.550148,552.610711 919.795467,553.317312 918.976558,554.039973 C918.157649,554.762634 917.274511,555.469236 916.471659,556.240074 C915.71055,556.936373 914.911853,557.590425 914.07916,558.199288 C913.368778,558.835151 912.606041,559.409964 911.799061,559.917615 C910.835638,560.415448 909.936444,560.945399 909.021192,561.523528 C908.252733,562.031488 907.398625,562.396027 906.500237,562.599489 C905.969499,562.685414 905.432065,562.723039 904.894533,562.711903 C904.30267,562.743488 903.713009,562.807823 903.128259,562.904613 C901.882724,562.992894 900.632503,562.992894 899.386968,562.904613 C898.771142,562.975613 898.306385,563.497093 898.306385,564.117077 C898.306385,564.737062 898.771142,565.258541 899.386968,565.329541 L899.48331,565.281364 Z" id="Path" fill="#2E9898"></path>
                                        <path d="M748.96461,498.362971 C748.884325,499.679819 750.088603,500.820018 750.987797,501.574797 C752.143904,502.61864 753.380296,503.598247 754.600631,504.593913 C755.371369,505.20416 756.109993,505.814407 756.912845,506.392536 C757.715697,506.970664 758.197408,507.42032 758.871804,507.998449 C759.459388,508.32133 760.022854,508.686289 760.557793,509.090469 C761.147753,509.761224 761.899517,510.269836 762.741551,510.567909 C764.459654,511.178156 766.065358,512.173822 767.799519,512.687714 C768.682656,512.96072 769.533679,513.201607 770.400759,513.554907 L773.146513,514.662987 C775.025187,515.35353 776.935975,515.963777 778.830706,516.606142 C780.725437,517.248507 782.636225,517.971168 784.547012,518.629592 C785.574663,518.982893 786.618371,519.352253 787.678135,519.609199 C788.7379,519.866145 789.829779,520.026737 790.889543,520.267624 C793.066844,520.652692 795.281672,520.782042 797.488987,520.653043 C798.104813,520.582043 798.569571,520.060563 798.569571,519.440578 C798.569571,518.820594 798.104813,518.299114 797.488987,518.228114 C795.645675,518.360064 793.793463,518.290058 791.965365,518.019345 C790.183034,517.617867 788.400702,517.328803 786.666542,516.766733 C783.005536,515.578358 779.392702,514.24545 775.747754,513.008897 C774.029651,512.414709 772.359718,511.756285 770.689786,511.049683 C769.85482,510.696382 768.971683,510.55185 768.136717,510.230668 C767.301751,509.909485 766.531013,509.556184 765.760275,509.186824 C764.989537,508.817464 764.154571,508.512341 763.39989,508.223276 C762.645209,507.934212 762.227726,507.22761 761.585444,506.761896 C760.943162,506.296181 760.589908,506.280122 760.156367,505.926821 C759.433801,505.332633 758.711234,504.770563 757.956553,504.224553 C756.350849,503.084355 754.937829,501.815684 753.460581,500.563071 C752.988509,500.181796 752.538204,499.774324 752.11179,499.342578 C751.905824,499.145507 751.717754,498.930542 751.549794,498.700212 L751.373166,498.362971 C751.373166,498.491444 751.373166,498.475385 751.373166,498.362971 C751.373166,498.523562 751.373166,498.539621 751.373166,498.362971 C751.364515,497.692527 750.823188,497.151129 750.152831,497.142477 C749.48598,497.159369 748.949386,497.696033 748.932496,498.362971 L748.96461,498.362971 Z" id="Path" fill="#2E9898"></path>
                                        <path d="M761.938699,526.113147 C765.150107,526.113147 768.361515,526.113147 771.572923,526.113147 C773.076572,526.153118 774.577242,525.95806 776.020724,525.535018 C777.40936,525.120994 778.758176,524.583548 780.051041,523.929105 C781.287433,523.238563 782.588053,522.644375 783.824446,521.937773 C785.054556,521.206345 786.178353,520.309352 787.16431,519.271958 C789.190402,517.216764 791.08869,515.039349 792.848502,512.751951 C793.818296,511.549993 794.673073,510.259596 795.401572,508.89776 C795.754827,508.191158 796.011739,507.436379 796.348937,506.729777 C796.735064,506.006624 797.036776,505.241467 797.248132,504.449381 C797.601387,502.923764 795.241002,502.265339 794.903804,503.807016 C794.762592,504.363928 794.55786,504.902767 794.293636,505.412929 C793.988552,506.023176 793.763754,506.665541 793.474727,507.291847 C792.911201,508.475675 792.222147,509.595533 791.419426,510.632146 C789.791928,512.784054 788.038652,514.837852 786.168773,516.782792 C785.329244,517.760926 784.375011,518.634406 783.326677,519.384371 C782.186627,520.15521 780.902064,520.653043 779.713843,521.311467 C777.446904,522.744884 774.846161,523.563947 772.167034,523.688218 C768.746884,523.688218 765.326735,523.688218 761.890528,523.688218 C761.216555,523.688218 760.670193,524.234652 760.670193,524.908712 C760.670193,525.582772 761.216555,526.129206 761.890528,526.129206 L761.938699,526.113147 Z" id="Path" fill="#2E9898"></path>
                                        <path d="M772.889601,545.255629 C773.311375,545.313505 773.722469,545.432522 774.109936,545.60893 C774.539578,545.735917 774.958393,545.89702 775.362385,546.090704 C776.325807,546.556419 777.28923,547.038193 778.268709,547.471789 C780.291897,548.3711 782.234799,549.414944 784.322214,550.121546 C785.343331,550.45636 786.38354,550.729853 787.43728,550.940561 C788.419112,551.165299 789.380509,551.471482 790.31149,551.855932 C791.364608,552.223392 792.436605,552.534312 793.522898,552.787361 C794.611526,553.144866 795.737497,553.376555 796.87882,553.477904 C798.115212,553.477904 799.351604,553.477904 800.587996,553.477904 L804.63437,553.477904 C805.308343,553.477904 805.854705,552.93147 805.854705,552.25741 C805.854705,551.58335 805.308343,551.036916 804.63437,551.036916 C802.354271,551.036916 800.074171,551.036916 797.794071,551.036916 C796.705788,551.034478 795.623766,550.872154 794.582663,550.555142 C793.490784,550.23396 792.398905,549.993073 791.371255,549.639772 C790.454332,549.263663 789.516045,548.941922 788.561273,548.676224 C787.501508,548.435337 786.4578,548.226568 785.43015,547.905386 C783.421569,547.160326 781.454427,546.307966 779.537216,545.351984 C778.461394,544.87021 777.417686,544.3242 776.325807,543.842426 C775.803145,543.602749 775.267008,543.393628 774.720103,543.21612 C774.15812,542.981329 773.561447,542.840279 772.953829,542.798582 C771.348125,542.798582 771.348125,545.303807 772.953829,545.23957 L772.889601,545.255629 Z" id="Path" fill="#2E9898"></path>
                                        <path d="M779.986813,563.306091 C780.991818,563.233075 781.952754,562.864295 782.748624,562.246188 C783.085822,561.989242 783.406962,561.732296 783.760217,561.507469 C784.113472,561.282641 784.675469,561.025695 785.109009,560.73663 C786.030652,560.083225 786.862086,559.311079 787.581793,558.440175 C788.272246,557.637218 788.850299,556.657611 789.588923,555.902832 C789.926121,555.565591 790.359661,555.356822 790.696859,555.003521 C791.034057,554.65022 791.563939,554.007855 791.981422,553.510022 C792.75216,552.610711 793.587126,551.727459 794.261522,550.796029 C795.754827,548.917111 796.910934,546.845483 798.243668,544.854151 C798.945334,543.734831 799.572903,542.570727 800.122342,541.36932 C800.716452,540.148826 801.406905,538.992569 802.097358,537.820252 C802.418795,537.241144 802.219728,536.511322 801.648783,536.175685 C801.077838,535.840048 800.343432,536.021115 799.993886,536.583699 C799.431889,537.563306 798.853836,538.526854 798.388182,539.538579 C797.922527,540.550304 797.424759,541.529911 796.894877,542.493459 C796.364994,543.457007 795.674542,544.404495 795.096488,545.384102 C794.518435,546.363709 793.940381,547.246961 793.2981,548.146273 C792.655818,549.045584 791.933251,549.880659 791.226741,550.715733 C790.528283,551.640452 789.772095,552.520104 788.962699,553.349431 C788.625501,553.686672 788.191961,553.895441 787.854763,554.248742 C787.517565,554.602043 787.228538,555.067758 786.923454,555.469236 C786.282334,556.332459 785.57359,557.143325 784.803925,557.894164 C784.023742,558.52311 783.197124,559.092155 782.331141,559.596432 C781.656745,560.062147 780.918121,560.816926 780.051041,560.865103 C778.445337,560.961458 778.445337,563.402446 780.051041,563.306091 L779.986813,563.306091 Z" id="Path" fill="#2E9898"></path>
                                        <path d="M864.382619,346.427545 C859.244366,351.373757 851.183732,353.52568 848.630662,354.103809 L848.389807,334.029897 L847.651183,334.029897 L846.928616,334.110193 L847.169471,354.216223 C843.636922,353.943218 836.53971,349.270011 832.493336,346.299072 C832.268538,346.796905 832.075853,347.246561 831.915283,347.680157 C833.199846,348.611587 834.96612,349.84814 836.860851,351.052574 C841.677963,354.135927 845.274741,355.693663 847.55484,355.693663 L848.036552,355.693663 C850.459561,355.21714 852.834851,354.523809 855.133764,353.622035 C858.729795,352.315164 862.059235,350.367297 864.960673,347.872867 C864.816159,347.455329 864.607418,346.973555 864.382619,346.427545 Z" id="Path" fill="#42D7D6"></path>
                                        <path d="M864.382619,346.427545 C859.244366,351.373757 851.183732,353.52568 848.630662,354.103809 L848.389807,334.029897 L847.651183,334.029897 L846.928616,334.110193 L847.169471,354.216223 C843.636922,353.943218 836.53971,349.270011 832.493336,346.299072 C832.268538,346.796905 832.075853,347.246561 831.915283,347.680157 C833.199846,348.611587 834.96612,349.84814 836.860851,351.052574 C841.677963,354.135927 845.274741,355.693663 847.55484,355.693663 L848.036552,355.693663 C850.459561,355.21714 852.834851,354.523809 855.133764,353.622035 C858.729795,352.315164 862.059235,350.367297 864.960673,347.872867 C864.816159,347.455329 864.607418,346.973555 864.382619,346.427545 Z" id="Path" fill="#42D7D6"></path>
                                        <path d="M858.200658,343.488724 C858.84294,342.814241 859.693963,342.396703 860.304131,341.674043 C860.592189,341.37482 860.855329,341.052566 861.090926,340.710495 C861.186146,340.549675 861.271929,340.38345 861.347838,340.212662 C861.436335,339.844933 861.468815,339.46595 861.444181,339.088523 C861.444181,338.478276 861.604751,337.868029 861.636865,337.257782 C861.668979,336.647535 861.636865,336.085466 861.636865,335.507337 C861.69567,334.88818 861.722467,334.266399 861.71715,333.644478 C861.71715,332.761226 861.797436,331.910092 861.82955,331.042899 C861.898507,329.287862 862.080868,327.539121 862.375489,325.807623 C862.5765,324.473954 862.657111,323.1249 862.616345,321.776781 L862.616345,316.25244 C862.616345,315.738548 862.728744,315.272833 862.728744,314.758941 C862.728744,314.245049 862.841143,313.795394 862.825086,313.281501 L862.825086,311.868298 C862.825086,310.985046 862.825086,310.117853 862.825086,309.25066 C862.846774,308.936555 862.917197,308.627738 863.033828,308.335289 C863.146227,307.94987 863.162284,307.548392 863.483425,307.275387 C863.890677,307.663573 864.261537,308.088236 864.591361,308.544058 C864.758843,308.870985 864.903697,309.20902 865.024901,309.555783 C865.389028,310.313406 865.643152,311.119137 865.779582,311.948594 C865.891981,312.703373 865.972266,313.458152 866.148894,314.196872 C866.325521,314.935592 866.309464,315.433425 866.405806,316.059731 C866.493165,316.543155 866.611154,317.020538 866.759061,317.488993 C866.839346,317.778058 866.935689,318.356186 867.160487,318.548896 C867.401343,318.404364 867.497685,318.051063 867.594027,317.810176 C867.69022,317.577603 867.802906,317.352201 867.931225,317.135693 C868.107853,316.830569 868.332651,316.541505 868.509279,316.236381 C868.704,315.823658 869.009804,315.473328 869.392416,315.224656 C870.01864,314.871355 870.387952,315.722489 870.484295,316.236381 C870.676979,317.392639 870.773321,318.564955 870.949949,319.737272 C870.949949,319.897863 870.949949,320.251164 871.15869,320.331459 C871.367432,320.411755 871.720687,320.026336 871.833086,319.897863 C872.007718,319.730705 872.201792,319.58513 872.41114,319.464266 L872.619881,319.464266 L872.84468,319.287616 C873.133706,319.175202 873.535132,319.480325 873.647532,319.721212 C873.880799,320.184313 874.084594,320.661684 874.257699,321.150475 C874.386503,321.615263 874.435371,322.098569 874.402213,322.579737 C874.409778,323.35305 874.361481,324.1259 874.257699,324.892252 C874.214852,325.366096 874.123381,325.834275 873.98473,326.289396 C873.87233,326.610579 873.775988,326.658756 873.98473,326.915702 C874.349819,327.210875 874.636589,327.591446 874.819696,328.023782 C874.883969,328.428075 874.883969,328.839984 874.819696,329.244276 C874.819282,329.507306 874.741067,329.764333 874.594897,329.982996 C874.462588,330.125269 874.363828,330.295379 874.30587,330.480829 C874.771524,330.625361 875.510148,330.09541 875.911574,330.480829 C876.048119,330.642328 876.122188,330.847469 876.120316,331.058958 C876.18782,331.327514 876.230815,331.601644 876.248772,331.877974 C876.327309,332.786367 876.267757,333.701419 876.072145,334.591966 C875.941697,334.920142 875.774723,335.232586 875.574377,335.523396 C875.514176,335.631214 875.444308,335.733342 875.365635,335.828519 C875.237179,335.956992 875.060551,335.989111 874.964209,336.149702 C875.189008,336.149702 875.429863,335.908815 875.670719,336.069406 C875.911574,336.229998 875.943688,336.792067 875.99186,337.049013 C876.089886,337.713295 876.02373,338.39148 875.799175,339.024286 C875.382012,340.54555 874.580175,341.933739 873.470904,343.055128 C873.27822,343.231778 872.957079,343.392369 872.957079,343.665375 C873.05779,343.941362 873.198449,344.201074 873.374562,344.436213 C873.541494,344.724126 873.723735,345.002884 873.920501,345.271288 C874.1453,345.59247 874.273756,345.929712 874.466441,346.266954 C874.659125,346.604195 874.819696,346.652373 874.466441,346.941437 C874.294723,347.079086 874.112147,347.20261 873.920501,347.310797 L873.583303,347.615921 C873.346459,347.765622 873.076046,347.853932 872.796508,347.872867 C872.211724,347.902262 871.628332,347.792174 871.094462,347.551684 C871.190804,347.872867 871.447717,348.113754 871.576173,348.434936 C871.677445,348.67792 871.752795,348.930914 871.800972,349.189715 C872.009638,350.190678 872.009638,351.223928 871.800972,352.224891 C871.777851,352.639021 871.571945,353.021468 871.238976,353.268734 C871.053634,353.409318 870.839964,353.507947 870.612751,353.557799 C869.745671,353.670212 869.007047,352.658487 868.268423,352.305186 C868.01151,352.642428 868.525336,353.557799 867.626141,353.397207 C867.226261,353.258482 866.855911,353.046048 866.534263,352.770901 C866.052551,352.449719 865.57084,352.160654 865.089129,351.823413 C864.20802,351.217237 863.404529,350.505326 862.69663,349.703607 C862.311261,349.237893 862.102519,348.836414 861.444181,348.836414 C860.378499,348.851724 859.411296,348.215323 859.00351,347.230501 C858.56997,346.347249 858.040088,345.512175 857.670776,344.612863" id="Path" fill="#2E9898"></path>
                                        <path d="M838.851924,344.002616 L838.033015,344.002616 C837.818574,343.966227 837.608639,343.907007 837.406791,343.825966 C837.137644,343.792477 836.882492,343.687074 836.668167,343.520843 C836.587882,343.520843 836.53971,343.37631 836.443368,343.328133 C836.347026,343.279956 836.202513,343.328133 836.10617,343.231778 C836.009828,343.135423 835.736858,342.589413 835.656573,342.300349 C835.56512,341.87657 835.419405,341.466355 835.223033,341.079855 C835.10235,340.87445 834.96257,340.680884 834.80555,340.501726 C834.627323,340.204598 834.487067,339.886284 834.388067,339.554238 C834.052783,338.746335 833.779034,337.914243 833.569158,337.065072 C833.553565,336.749236 833.499647,336.436466 833.408587,336.133643 C833.215903,335.683987 833.007161,335.26645 832.846591,334.816794 C832.52545,333.96566 832.284595,333.098467 831.915283,332.279452 C831.545971,331.460436 831.273001,330.320238 830.823404,329.388808 C830.433109,328.565114 830.126488,327.704311 829.908153,326.819348 C829.790493,326.292154 829.73126,325.753602 829.731525,325.213435 C829.704463,324.571698 829.629319,323.932895 829.506727,323.302398 C829.426441,322.70821 829.297985,322.097964 829.2177,321.503776 C829.193623,321.027659 829.193623,320.55063 829.2177,320.074513 L829.2177,316.686037 C829.179352,316.096042 829.206277,315.503615 829.297985,314.919533 C829.394327,314.518054 829.426441,314.100517 829.554898,313.699039 C829.683354,313.297561 829.763639,312.960319 829.843924,312.5749 C829.92421,312.189481 829.49067,311.964653 829.025015,312.061008 C828.65523,312.178907 828.307854,312.358046 827.997365,312.590959 C827.498939,312.913769 827.094586,313.362493 826.825201,313.891748 C826.639942,314.282932 826.49469,314.691841 826.391661,315.112242 C826.309166,315.353207 826.21266,315.589143 826.102634,315.818844 C825.986507,316.117906 825.910903,316.43116 825.877835,316.750273 C825.765436,317.312343 825.556695,317.842294 825.492466,318.356186 C825.439562,318.551014 825.401981,318.749683 825.380067,318.950374 C825.388366,319.100144 825.388366,319.250259 825.380067,319.40003 C825.338367,319.487359 825.306072,319.578875 825.283725,319.673035 C825.283725,319.753331 825.283725,319.817567 825.283725,319.897863 C825.283725,319.978158 824.93047,319.897863 824.7699,319.897863 L823.645907,319.656976 C822.762769,319.432148 821.927803,318.918256 821.237351,319.785449 C820.788243,320.274256 820.686142,320.98905 820.980438,321.584071 C821.130479,321.897569 821.296623,322.203101 821.478206,322.499442 C821.6915,322.729149 821.870021,322.988848 822.008089,323.27028 C822.168659,323.63964 822.008089,323.719936 821.606662,323.864468 C820.880288,324.148081 820.10629,324.289817 819.326563,324.282005 C818.780623,324.282005 818.250741,324.394419 817.720859,324.458656 C817.190976,324.522892 817.142805,324.458656 817.014349,324.828016 C816.936752,325.071975 816.898803,325.326808 816.90195,325.582795 C816.874286,326.021613 816.980687,326.458471 817.207033,326.835407 L817.817201,327.734718 C818.074114,328.088019 818.250741,328.457379 818.539768,328.794621 C818.628966,328.908102 818.731385,329.010534 818.844851,329.099744 C818.957251,329.196099 819.053593,329.372749 819.182049,329.453045 C819.310506,329.533341 819.647704,329.597577 819.77616,329.774228 C818.957251,330.480829 817.865372,331.091076 817.640573,332.183097 C817.553266,332.7205 817.699293,333.269633 818.041999,333.692655 C818.297686,333.935459 818.590371,334.136029 818.90908,334.286843 L819.583475,334.624085 L819.583475,334.624085 C819.309558,334.99108 819.062698,335.377519 818.844851,335.780342 C818.665706,336.29581 818.589334,336.841402 818.620053,337.386255 C818.581084,337.868201 818.675524,338.351574 818.893023,338.783399 C819.037536,339.024286 819.23022,339.233055 819.374734,339.473942 C819.48592,339.676194 819.646015,339.847353 819.840388,339.971775 C820.04913,340.116307 820.225757,340.24478 820.418441,340.405371 C820.611126,340.565963 821.044666,340.742613 821.301579,340.967441 C821.301579,341.208328 820.755639,341.54557 820.595069,341.738279 C820.351353,342.029052 820.16108,342.360714 820.033072,342.717886 C819.951413,343.188015 820.00143,343.671575 820.177586,344.11503 C820.284738,344.386924 820.455418,344.62921 820.675354,344.821632 C820.824744,345.024046 821.023853,345.18446 821.253408,345.287347 C821.471682,345.319427 821.693472,345.319427 821.911746,345.287347 C822.243021,345.242162 822.563726,345.13887 822.859112,344.982223 C822.974104,344.925698 823.081917,344.85561 823.180252,344.773455 C823.276595,344.6771 823.35688,344.516509 823.501393,344.48439 C823.541537,344.809692 823.541537,345.138696 823.501393,345.463997 L823.501393,346.716609 C823.501393,347.26262 823.62985,347.760453 823.678021,348.322522 C823.726192,348.884592 823.934933,349.061242 824.400588,349.061242 C824.901843,349.045409 825.389727,348.895697 825.813607,348.627646 C826.004195,348.815719 826.234701,348.958431 826.488003,349.045183 C826.488003,349.221834 826.488003,349.382425 826.488003,349.543016 L826.488003,350.859865 C826.508484,351.215534 826.595635,351.564184 826.744916,351.887649 C826.825201,352.080359 826.857315,352.321246 827.082113,352.369423 L827.435368,352.369423 C827.851107,352.214001 828.232804,351.9795 828.559361,351.67888 C828.928673,351.405875 829.249814,351.100752 829.635183,350.843806 C829.780848,351.325912 829.957852,351.797986 830.165065,352.257009 C830.405921,352.78696 831.337229,352.947552 831.899226,352.931493 C832.894762,352.931493 833.264074,352.016122 833.633386,351.32558 C833.858185,350.924101 833.93847,350.474446 834.131154,350.056908 C834.323839,349.639371 834.404124,349.318188 834.725265,349.237893 C835.303318,349.10942 835.897429,349.526957 836.475482,349.462721 C837.053536,349.398484 837.294391,348.643705 837.535247,348.306463 C837.776103,347.969221 837.920616,347.664098 838.129357,347.375034 C838.348829,347.156859 838.542762,346.914412 838.707411,346.652373 C838.870335,346.347907 838.994409,346.024195 839.076723,345.688825 C839.205179,345.110696 839.285464,344.548627 839.381807,343.970498 L838.851924,344.002616 Z" id="Path" fill="#2E9898"></path>
                                        <rect id="Rectangle" fill="url(#linearGradient-38)" x="27.6983953" y="688.454888" width="1680.96343" height="117.199528"></rect>
                                        <rect id="Rectangle" fill="url(#linearGradient-39)" x="27.6983953" y="688.454888" width="1680.96343" height="25.9676127"></rect>
                                        <g id="riNqyV" transform="translate(831.754712, 404.690067)" fill="#2E9898">
                                            <path d="M31.118545,20.5878042 C37.1238783,20.1542077 43.2576679,20.2987399 49.1184877,19.1103643 C55.9427301,17.7453383 60.7919564,13.3451367 64.0033645,6.92148488 C65.2076426,4.48049717 67.9694536,2.82640682 70.0247548,0.802956483 L70.891835,1.76650426 C70.7106456,2.13581421 70.4840977,2.48107497 70.2174393,2.79428856 C64.6135321,8.6076935 64.6777603,11.3056273 71.8231434,15.1598184 C75.7089473,17.2796235 80.3654891,18.0183435 84.668776,19.2067191 C86.1139097,19.5921382 87.7196138,19.3994286 89.2129186,19.7848477 C80.0122342,21.9849485 74.2638136,20.3629764 64.7901595,12.9918359 C60.8882986,23.6229797 56.9222096,33.9971775 56.8579814,45.4633961 L55.4610188,45.2225091 C55.8463878,39.1200398 56.1193575,33.0175706 56.6652969,26.9311604 C56.9864377,23.2215015 55.7339885,22.1134215 51.9284699,22.1134215 C45.0399994,22.290072 38.1515289,21.7761798 31.2470014,21.551352 L31.118545,20.5878042 Z" id="Path"></path>
                                            <path d="M21.0989516,23.9281032 L21.0989516,36.2133374 L24.3103597,36.5505791 L24.3103597,37.8031912 L14.0017396,38.4776747 C14.0017396,37.9316643 13.9053973,37.3695947 13.8411691,36.8717617 L19.0757644,35.9885096 C18.88308,32.2146141 18.6903955,28.4246595 18.4334828,23.285738 L0.931308365,30.3999324 C6.47098743,19.7206112 28.0516502,18.0665209 37.2523346,29.1312612 C34.7059859,27.7971204 32.0842689,26.6121003 29.4004417,25.5821935 C26.6673664,24.8717101 23.8956029,24.3194301 21.0989516,23.9281032 Z" id="Path"></path>
                                            <path d="M102.98986,46.571476 C103.327057,43.8574831 103.696369,41.1595493 104.01751,38.5419112 C104.338651,35.924273 104.579507,33.194221 104.916704,29.9342177 C107.71063,35.9885096 104.804305,41.3040815 104.370765,46.699949 L102.98986,46.571476 Z" id="Path"></path>
                                            <path d="M110.392155,48.4182759 C110.954152,43.1508814 111.516148,37.8674277 111.997859,32.6000332 L113.18608,32.6000332 C112.736483,37.8834869 112.302943,43.1829997 111.869403,48.4664533 L110.392155,48.4182759 Z" id="Path"></path>
                                            <path d="M117.922907,29.6290942 C120.275484,33.9776703 120.275484,39.2198427 117.922907,43.5684188 L117.922907,29.6290942 Z" id="Path"></path>
                                        </g>
                                        <g id="riNqyV-2" transform="translate(746.652396, 404.690067)" fill="#2E9898">
                                            <path d="M88.6990933,20.5878042 C82.677703,20.1542077 76.5599704,20.2987399 70.6991505,19.1103643 C63.8749082,17.7453383 59.0256819,13.3451367 55.8142737,6.92148488 C54.5939386,4.48049717 51.8481847,2.82640682 49.7928834,0.802956483 L48.9097462,1.76650426 C49.1024827,2.1291008 49.3282368,2.47315185 49.5841419,2.79428856 C55.2041062,8.6076935 55.123821,11.3056273 48.058723,15.1598184 C44.1729192,17.2796235 39.5163774,18.0183435 35.2130904,19.2067191 C33.7679568,19.5921382 32.1622527,19.3994286 30.6689479,19.7848477 C39.8696322,21.9849485 45.6180528,20.3629764 55.0917069,12.9918359 C58.9935678,23.6229797 68.4832789,31.4758941 68.5475071,42.9421127 C69.0131613,42.8618171 74.5528403,43.2954136 74.9703234,43.2151179 C74.5849544,37.1126486 68.2424233,33.9490001 67.6964839,27.86259 C67.3753431,24.1689901 64.0997068,22.1134215 67.8891684,22.1937172 C74.7776389,22.3703676 81.6821664,21.8564755 88.5706369,21.6316477 L88.6990933,20.5878042 Z" id="Path"></path>
                                            <path d="M16.8277787,46.571476 C16.4745238,43.8574831 16.1212689,41.1595493 15.8001281,38.5419112 C15.4789873,35.924273 15.2381317,33.194221 14.9009338,29.9342177 C12.1070087,35.9885096 15.0133331,41.3040815 15.4468732,46.699949 L16.8277787,46.571476 Z" id="Path"></path>
                                            <path d="M9.42548294,48.4182759 L7.73949365,32.6000332 L6.56732968,32.6000332 C7.00086978,37.8834869 7.45046692,43.1829997 7.88400702,48.4664533 L9.42548294,48.4182759 Z" id="Path"></path>
                                            <path d="M1.89473081,29.6290942 C-0.457846071,33.9776703 -0.457846071,39.2198427 1.89473081,43.5684188 L1.89473081,29.6290942 Z" id="Path"></path>
                                        </g>
                                        <path d="M894.072088,485.08207 C883.924038,501.494501 865.747468,509.07441 849.417457,503.148591 C858.505742,503.501892 867.080202,505.123864 874.386156,500.290066 C881.290683,495.777451 887.472644,490.25311 894.072088,485.08207 Z" id="Path" fill="#095F93"></path>
                                        <path d="M879.29961,489.161089 L884.598433,478.192704 C885.818769,481.77389 884.742947,484.552119 879.29961,489.161089 Z" id="Path" fill="#095F93"></path>
                                        <path d="M915.411895,623.495709 C910.867752,621.343786 908.716109,613.458753 908.716109,613.458753 L892.883866,602.956082 C892.883866,604.353226 892.883866,605.236479 892.883866,605.236479 L906.371781,614.486537 C907.747592,616.881921 908.985986,619.35367 910.080957,621.889796 C912.457399,627.189309 930.698198,629.839065 930.698198,629.839065 C932.327158,629.820192 933.946633,629.588037 935.51531,629.148523 C937.429351,628.600217 939.210822,627.665643 940.749905,626.402411 C941.022875,626.177584 941.26373,625.920638 941.504586,625.69581 C930.08803,630.320839 919.458269,625.406745 915.411895,623.495709 Z" id="Path" fill="#006362"></path>
                                        <path d="M823.62985,581.565321 L823.148138,582.127391 L809.274855,599.005536 C809.274855,599.005536 796.108082,612.39885 788.111675,614.277769 C782.106342,615.690972 772.520289,613.266043 768.12066,611.965254 C768.12066,613.266043 768.12066,614.133236 768.12066,614.133236 L782.427483,617.02388 C784.679216,617.481554 786.999993,617.481554 789.251725,617.02388 C789.71738,616.927525 790.166977,616.815111 790.632631,616.686638 C793.847861,615.740703 796.720142,613.883239 798.902007,611.338948 C805.77442,603.309383 819.471076,594.123561 822.810941,587.459022 C823.719741,585.636492 824.007342,583.566624 823.62985,581.565321 L823.62985,581.565321 Z" id="Path" fill="#006362"></path>
                                        <rect id="Rectangle" fill="url(#radialGradient-40)" style="mix-blend-mode: multiply;" x="34.265725" y="14.7101628" width="1631.26689" height="772.283545"></rect>
                                    </g>
                                    <rect id="Rectangle" x="48.1711223" y="43.3596501" width="1605.70408" height="742.734747"></rect>
                                </g>
                            </g>
                        </g>
                    </g>
                </g>
            </g>
        </g>
    </g>
</svg>